<?xml version="1.0" encoding="UTF-8" standalone="no"?>
<!-- Created with Inkscape (http://www.inkscape.org/) -->

<svg
   width="210mm"
   height="297mm"
   viewBox="0 0 210 297"
   version="1.1"
   id="svg63497"
   inkscape:version="1.1.1 (3bf5ae0d25, 2021-09-20)"
   sodipodi:docname="backup_conventions.svg"
   xmlns:inkscape="http://www.inkscape.org/namespaces/inkscape"
   xmlns:sodipodi="http://sodipodi.sourceforge.net/DTD/sodipodi-0.dtd"
   xmlns:xlink="http://www.w3.org/1999/xlink"
   xmlns="http://www.w3.org/2000/svg"
   xmlns:svg="http://www.w3.org/2000/svg">
  <sodipodi:namedview
     id="namedview63499"
     pagecolor="#ffffff"
     bordercolor="#666666"
     borderopacity="1.0"
     inkscape:pageshadow="2"
     inkscape:pageopacity="0.0"
     inkscape:pagecheckerboard="0"
     inkscape:document-units="mm"
     showgrid="false"
     inkscape:zoom="3.1108586"
     inkscape:cx="244.46627"
     inkscape:cy="203.32007"
     inkscape:window-width="3840"
     inkscape:window-height="1577"
     inkscape:window-x="-8"
     inkscape:window-y="-8"
     inkscape:window-maximized="1"
     inkscape:current-layer="layer1"
     inkscape:connector-spacing="77" />
  <defs
     id="defs63494">
    <marker
       style="overflow:visible;"
       id="Arrow1Lend"
       refX="0.0"
       refY="0.0"
       orient="auto"
       inkscape:stockid="Arrow1Lend"
       inkscape:isstock="true">
      <path
         transform="scale(0.8) rotate(180) translate(12.5,0)"
         style="fill-rule:evenodd;fill:context-stroke;stroke:context-stroke;stroke-width:1.0pt;"
         d="M 0.0,0.0 L 5.0,-5.0 L -12.5,0.0 L 5.0,5.0 L 0.0,0.0 z "
         id="path9761" />
    </marker>
    <marker
       style="overflow:visible"
       id="EmptyTriangleOutL"
       refX="0.0"
       refY="0.0"
       orient="auto"
       inkscape:stockid="EmptyTriangleOutL"
       inkscape:isstock="true">
      <path
         transform="scale(0.8) translate(-6,0)"
         style="fill-rule:evenodd;fill:context-fill;stroke:context-stroke;stroke-width:1.0pt"
         d="M 5.77,0.0 L -2.88,5.0 L -2.88,-5.0 L 5.77,0.0 z "
         id="path28661" />
    </marker>
    <marker
       style="overflow:visible"
       id="Tail"
       refX="0.0"
       refY="0.0"
       orient="auto"
       inkscape:stockid="Tail"
       inkscape:isstock="true">
      <g
         transform="scale(-1.2)"
         id="g28549">
        <path
           style="fill:none;fill-rule:evenodd;stroke:context-stroke;stroke-width:0.8;stroke-linecap:round"
           d="M -3.8048674,-3.9585227 L 0.54352094,0"
           id="path28537" />
        <path
           style="fill:none;fill-rule:evenodd;stroke:context-stroke;stroke-width:0.8;stroke-linecap:round"
           d="M -1.2866832,-3.9585227 L 3.0617053,0"
           id="path28539" />
        <path
           style="fill:none;fill-rule:evenodd;stroke:context-stroke;stroke-width:0.8;stroke-linecap:round"
           d="M 1.3053582,-3.9585227 L 5.6537466,0"
           id="path28541" />
        <path
           style="fill:none;fill-rule:evenodd;stroke:context-stroke;stroke-width:0.8;stroke-linecap:round"
           d="M -3.8048674,4.1775838 L 0.54352094,0.21974226"
           id="path28543" />
        <path
           style="fill:none;fill-rule:evenodd;stroke:context-stroke;stroke-width:0.8;stroke-linecap:round"
           d="M -1.2866832,4.1775838 L 3.0617053,0.21974226"
           id="path28545" />
        <path
           style="fill:none;fill-rule:evenodd;stroke:context-stroke;stroke-width:0.8;stroke-linecap:round"
           d="M 1.3053582,4.1775838 L 5.6537466,0.21974226"
           id="path28547" />
      </g>
    </marker>
    <marker
       style="overflow:visible"
       id="EmptyTriangleOutL-8"
       refX="0"
       refY="0"
       orient="auto"
       inkscape:stockid="EmptyTriangleOutL"
       inkscape:isstock="true">
      <path
         transform="matrix(0.8,0,0,0.8,-4.8,0)"
         style="fill:context-fill;fill-rule:evenodd;stroke:context-stroke;stroke-width:1pt"
         d="M 5.77,0 -2.88,5 V -5 Z"
         id="path28661-7" />
    </marker>
    <linearGradient
       inkscape:collect="always"
       id="linearGradient32773-1">
      <stop
         style="stop-color:#093887;stop-opacity:1;"
         offset="0"
         id="stop32769" />
      <stop
         style="stop-color:#093887;stop-opacity:0;"
         offset="1"
         id="stop32771" />
    </linearGradient>
    <marker
       style="overflow:visible"
       id="EmptyTriangleOutL-2"
       refX="0"
       refY="0"
       orient="auto"
       inkscape:stockid="EmptyTriangleOutL"
       inkscape:isstock="true">
      <path
         transform="matrix(0.8,0,0,0.8,-4.8,0)"
         style="fill:context-fill;fill-rule:evenodd;stroke:context-stroke;stroke-width:1pt"
         d="M 5.77,0 -2.88,5 V -5 Z"
         id="path28661-1" />
    </marker>
    <filter
       inkscape:collect="always"
       style="color-interpolation-filters:sRGB"
       id="filter33207-4-0-2-1"
       x="-0.00035719007"
       y="-0.69882904"
       width="1.0230396"
       height="2.018541">
      <feGaussianBlur
         inkscape:collect="always"
         stdDeviation="0.0027614341"
         id="feGaussianBlur33209-7-0-0-0" />
    </filter>
    <linearGradient
       inkscape:collect="always"
       xlink:href="#linearGradient32773-1"
       id="linearGradient2873"
       gradientUnits="userSpaceOnUse"
       gradientTransform="translate(4.2919327,117.85503)"
       x1="29.597937"
       y1="107.50515"
       x2="54.603092"
       y2="107.50515" />
    <filter
       inkscape:collect="always"
       style="color-interpolation-filters:sRGB"
       id="filter33207-4-0-2-1-3"
       x="-0.00035719007"
       y="-0.69882904"
       width="1.0230396"
       height="2.018541">
      <feGaussianBlur
         inkscape:collect="always"
         stdDeviation="0.0027614341"
         id="feGaussianBlur33209-7-0-0-0-9" />
    </filter>
    <linearGradient
       inkscape:collect="always"
       xlink:href="#linearGradient32773-1"
       id="linearGradient9532"
       gradientUnits="userSpaceOnUse"
       gradientTransform="translate(4.2919327,117.85503)"
       x1="29.597937"
       y1="107.50515"
       x2="54.603092"
       y2="107.50515" />
    <inkscape:perspective
       sodipodi:type="inkscape:persp3d"
       inkscape:vp_x="0 : 526.18109 : 1"
       inkscape:vp_y="0 : 1000 : 0"
       inkscape:vp_z="744.09448 : 526.18109 : 1"
       inkscape:persp3d-origin="372.04724 : 350.78739 : 1"
       id="perspective9" />
    <filter
       inkscape:collect="always"
       style="color-interpolation-filters:sRGB"
       id="filter33207-4-0-2-1-3-0"
       x="-0.00035719007"
       y="-0.69882904"
       width="1.0230396"
       height="2.018541">
      <feGaussianBlur
         inkscape:collect="always"
         stdDeviation="0.0027614341"
         id="feGaussianBlur33209-7-0-0-0-9-1" />
    </filter>
    <linearGradient
       inkscape:collect="always"
       xlink:href="#linearGradient32773-1"
       id="linearGradient43070"
       gradientUnits="userSpaceOnUse"
       gradientTransform="translate(4.2919327,117.85503)"
       x1="29.597937"
       y1="107.50515"
       x2="54.603092"
       y2="107.50515" />
    <filter
       inkscape:collect="always"
       style="color-interpolation-filters:sRGB"
       id="filter33207-4-0-2-1-9"
       x="-0.00035719007"
       y="-0.69882904"
       width="1.0230396"
       height="2.018541">
      <feGaussianBlur
         inkscape:collect="always"
         stdDeviation="0.0027614341"
         id="feGaussianBlur33209-7-0-0-0-0" />
    </filter>
    <filter
       inkscape:collect="always"
       style="color-interpolation-filters:sRGB"
       id="filter33207-4-0-2-1-3-2"
       x="-0.00035719007"
       y="-0.69882904"
       width="1.0230396"
       height="2.018541">
      <feGaussianBlur
         inkscape:collect="always"
         stdDeviation="0.0027614341"
         id="feGaussianBlur33209-7-0-0-0-9-3" />
    </filter>
    <linearGradient
       inkscape:collect="always"
       xlink:href="#linearGradient32773-1"
       id="linearGradient48948"
       gradientUnits="userSpaceOnUse"
       gradientTransform="translate(4.2919327,117.85503)"
       x1="29.597937"
       y1="107.50515"
       x2="54.603092"
       y2="107.50515" />
    <linearGradient
       inkscape:collect="always"
       xlink:href="#linearGradient32773-1"
       id="linearGradient48950"
       gradientUnits="userSpaceOnUse"
       gradientTransform="translate(4.2919327,117.85503)"
       x1="29.597937"
       y1="107.50515"
       x2="54.603092"
       y2="107.50515" />
    <filter
       inkscape:collect="always"
       style="color-interpolation-filters:sRGB"
       id="filter33207-4-0-2-1-9-9"
       x="-0.00035719007"
       y="-0.69882904"
       width="1.0230396"
       height="2.018541">
      <feGaussianBlur
         inkscape:collect="always"
         stdDeviation="0.0027614341"
         id="feGaussianBlur33209-7-0-0-0-0-2" />
    </filter>
    <filter
       inkscape:collect="always"
       style="color-interpolation-filters:sRGB"
       id="filter33207-4-0-2-1-3-2-4"
       x="-0.00035719007"
       y="-0.69882904"
       width="1.0230396"
       height="2.018541">
      <feGaussianBlur
         inkscape:collect="always"
         stdDeviation="0.0027614341"
         id="feGaussianBlur33209-7-0-0-0-9-3-2" />
    </filter>
    <linearGradient
       inkscape:collect="always"
       xlink:href="#linearGradient32773-1"
       id="linearGradient1173"
       gradientUnits="userSpaceOnUse"
       gradientTransform="translate(4.2919327,117.85503)"
       x1="29.597937"
       y1="107.50515"
       x2="54.603092"
       y2="107.50515" />
    <linearGradient
       inkscape:collect="always"
       xlink:href="#linearGradient32773-1"
       id="linearGradient1175"
       gradientUnits="userSpaceOnUse"
       gradientTransform="translate(4.2919327,117.85503)"
       x1="29.597937"
       y1="107.50515"
       x2="54.603092"
       y2="107.50515" />
  </defs>
  <g
     inkscape:label="Calque 1"
     inkscape:groupmode="layer"
     id="layer1">
    <rect
       style="fill:none;stroke:#093887;stroke-width:0.243129;stroke-miterlimit:4;stroke-dasharray:none;stroke-dashoffset:0;stroke-opacity:1"
       id="rect63592"
       width="51.580528"
       height="28.057053"
       x="11.195059"
       y="4.2133732"
       ry="3.0395138"
       rx="3.0105369"
       inkscape:export-filename="D:\Sourcecode\Article714\ansible714\documentation\using\img\backup_conventions.png"
       inkscape:export-xdpi="223.53999"
       inkscape:export-ydpi="223.53999" />
    <rect
       style="fill:none;stroke:#404040;stroke-width:0.184966;stroke-miterlimit:4;stroke-dasharray:0.184966, 0.739867;stroke-dashoffset:0;stroke-opacity:1"
       id="rect63592-7"
       width="116.5722"
       height="33.632698"
       x="8.3332882"
       y="1.8714225"
       ry="7.843637"
       rx="8.9566774"
       inkscape:export-filename="D:\Sourcecode\Article714\ansible714\documentation\using\img\backup_conventions.png"
       inkscape:export-xdpi="223.53999"
       inkscape:export-ydpi="223.53999" />
    <rect
       style="fill:none;stroke:#404040;stroke-width:0.125135;stroke-miterlimit:4;stroke-dasharray:0.125135, 0.500542;stroke-dashoffset:0;stroke-opacity:1"
       id="rect63592-7-9"
       width="36.645164"
       height="48.968224"
       x="4.5909758"
       y="43.414539"
       ry="4.0076208"
       rx="3.6577585"
       inkscape:export-filename="D:\Sourcecode\Article714\ansible714\documentation\using\img\backup_conventions.png"
       inkscape:export-xdpi="223.53999"
       inkscape:export-ydpi="223.53999" />
    <rect
       style="fill:none;stroke:#cca400;stroke-width:0.0655749;stroke-miterlimit:4;stroke-dasharray:none;stroke-dashoffset:0;stroke-opacity:1"
       id="rect63592-5"
       width="14.990091"
       height="7.0229883"
       x="14.189904"
       y="7.3758039"
       ry="0.76082367"
       rx="0.87490809"
       inkscape:export-filename="D:\Sourcecode\Article714\ansible714\documentation\using\img\backup_conventions.png"
       inkscape:export-xdpi="223.53999"
       inkscape:export-ydpi="223.53999" />
    <text
       xml:space="preserve"
       style="font-style:italic;font-variant:normal;font-weight:normal;font-stretch:normal;font-size:1.87834px;line-height:0%;font-family:sans-serif;-inkscape-font-specification:'sans-serif, Italic';font-variant-ligatures:normal;font-variant-caps:normal;font-variant-numeric:normal;font-variant-east-asian:normal;text-align:start;letter-spacing:0px;word-spacing:0px;text-anchor:start;display:inline;fill:#093887;fill-opacity:1;stroke:none;stroke-width:0.0327757px;stroke-linecap:butt;stroke-linejoin:miter;stroke-opacity:1"
       x="31.761961"
       y="30.691019"
       id="text19650-9-3-8-2"
       transform="matrix(0.9259657,-0.05034103,0.04325722,1.0776019,0,0)"
       inkscape:export-filename="D:\Sourcecode\Article714\ansible714\documentation\using\img\backup_conventions.png"
       inkscape:export-xdpi="223.53999"
       inkscape:export-ydpi="223.53999"><tspan
         sodipodi:role="line"
         id="tspan19652-3-6-7-8"
         x="31.761961"
         y="30.691019"
         style="font-style:italic;font-variant:normal;font-weight:normal;font-stretch:normal;font-size:1.87834px;line-height:1.25;font-family:sans-serif;-inkscape-font-specification:'sans-serif, Italic';font-variant-ligatures:normal;font-variant-caps:normal;font-variant-numeric:normal;font-variant-east-asian:normal;fill:#093887;fill-opacity:1;stroke-width:0.0327757px">one_node</tspan></text>
    <text
       xml:space="preserve"
       style="font-style:italic;font-variant:normal;font-weight:normal;font-stretch:normal;font-size:1.87834px;line-height:0%;font-family:sans-serif;-inkscape-font-specification:'sans-serif, Italic';font-variant-ligatures:normal;font-variant-caps:normal;font-variant-numeric:normal;font-variant-east-asian:normal;text-align:start;letter-spacing:0px;word-spacing:0px;text-anchor:start;display:inline;fill:#cca400;fill-opacity:1;stroke:none;stroke-width:0.0327757px;stroke-linecap:butt;stroke-linejoin:miter;stroke-opacity:1"
       x="18.97711"
       y="11.601532"
       id="text19650-9-3-8-2-7-6"
       transform="matrix(0.9259657,-0.05034103,0.04325722,1.0776019,0,0)"
       inkscape:export-filename="D:\Sourcecode\Article714\ansible714\documentation\using\img\backup_conventions.png"
       inkscape:export-xdpi="223.53999"
       inkscape:export-ydpi="223.53999"><tspan
         sodipodi:role="line"
         id="tspan19652-3-6-7-8-1-7"
         x="18.97711"
         y="11.601532"
         style="font-style:italic;font-variant:normal;font-weight:normal;font-stretch:normal;font-size:1.87834px;line-height:1.25;font-family:sans-serif;-inkscape-font-specification:'sans-serif, Italic';font-variant-ligatures:normal;font-variant-caps:normal;font-variant-numeric:normal;font-variant-east-asian:normal;fill:#cca400;fill-opacity:1;stroke-width:0.0327757px">first_svc</tspan></text>
    <rect
       style="fill:none;stroke:#cca400;stroke-width:0.0753659;stroke-miterlimit:4;stroke-dasharray:none;stroke-dashoffset:0;stroke-opacity:1"
       id="rect63592-5-9"
       width="19.828239"
       height="7.0131974"
       x="14.194802"
       y="15.41684"
       ry="0.759763"
       rx="1.1572902"
       inkscape:export-filename="D:\Sourcecode\Article714\ansible714\documentation\using\img\backup_conventions.png"
       inkscape:export-xdpi="223.53999"
       inkscape:export-ydpi="223.53999" />
    <text
       xml:space="preserve"
       style="font-style:italic;font-variant:normal;font-weight:normal;font-stretch:normal;font-size:1.87834px;line-height:0%;font-family:sans-serif;-inkscape-font-specification:'sans-serif, Italic';font-variant-ligatures:normal;font-variant-caps:normal;font-variant-numeric:normal;font-variant-east-asian:normal;text-align:start;letter-spacing:0px;word-spacing:0px;text-anchor:start;display:inline;fill:#cca400;fill-opacity:1;stroke:none;stroke-width:0.0327757px;stroke-linecap:butt;stroke-linejoin:miter;stroke-opacity:1"
       x="15.871153"
       y="19.422598"
       id="text19650-9-3-8-2-7-6-5"
       transform="matrix(0.9259657,-0.05034103,0.04325722,1.0776019,0,0)"
       inkscape:export-filename="D:\Sourcecode\Article714\ansible714\documentation\using\img\backup_conventions.png"
       inkscape:export-xdpi="223.53999"
       inkscape:export-ydpi="223.53999"><tspan
         sodipodi:role="line"
         id="tspan19652-3-6-7-8-1-7-5"
         x="15.871153"
         y="19.422598"
         style="font-style:italic;font-variant:normal;font-weight:normal;font-stretch:normal;font-size:1.87834px;line-height:1.25;font-family:sans-serif;-inkscape-font-specification:'sans-serif, Italic';font-variant-ligatures:normal;font-variant-caps:normal;font-variant-numeric:normal;font-variant-east-asian:normal;fill:#cca400;fill-opacity:1;stroke-width:0.0327757px">second_svc (part 1)</tspan></text>
    <path
       style="display:inline;fill:none;fill-opacity:1;fill-rule:nonzero;stroke:#240d8d;stroke-width:0.306276;stroke-miterlimit:4;stroke-dasharray:none;stroke-dashoffset:0;stroke-opacity:1"
       d="m 39.32207,6.6641075 c 0,0 0.140946,1.0192376 0.140946,1.9213387 -0.01163,0.056485 -0.01772,0.1150496 -0.01796,0.1751204 l -0.03049,6.4311874 c 1.503597,-0.187669 5.164023,-0.346098 6.379961,-0.359616 2.550913,-0.01943 4.420695,0.32648 4.420695,0.32648 L 50.062679,8.7605666 c -0.01151,-0.469709 -0.37483,-0.8481535 -0.8405,-0.8481535 l -6.624282,0.023683 C 42.369113,7.9549461 42.379895,7.7148397 42.340263,7.6382553 L 42.306313,7.4814024 C 42.207003,7.0223522 41.93015,6.6702694 41.465722,6.633337 c 0,0 -1.135051,0.1843884 -2.143654,0.030782 z"
       id="rect64220-5-3-0"
       inkscape:connector-curvature="0"
       sodipodi:nodetypes="ccscccscccssc"
       inkscape:export-filename="D:\Sourcecode\Article714\ansible714\documentation\using\img\backup_conventions.png"
       inkscape:export-xdpi="223.53999"
       inkscape:export-ydpi="223.53999" />
    <path
       style="display:inline;fill:none;fill-opacity:1;fill-rule:nonzero;stroke:#674fd5;stroke-width:0.305307;stroke-miterlimit:4;stroke-dasharray:none;stroke-dashoffset:0;stroke-opacity:1"
       d="m 111.023,61.178495 c 0,0 0.14191,1.00596 0.14191,1.89632 -0.0117,0.0558 -0.0179,0.11355 -0.0181,0.17284 l -0.0307,6.34744 c 1.5138,-0.18522 5.19907,-0.3416 6.42326,-0.35494 2.56823,-0.0192 4.45072,0.32223 4.45072,0.32223 l -0.15359,-6.31473 c -0.0116,-0.4636 -0.37737,-0.83711 -0.84621,-0.83711 l -6.66924,0.0234 c -0.23034,0.0186 -0.21949,-0.21838 -0.25939,-0.29396 l -0.0342,-0.15481 c -0.1,-0.45308 -0.37871,-0.80058 -0.84629,-0.83703 0,0 -1.14276,0.18199 -2.15821,0.0304 z"
       id="rect64220-5-3-0-1"
       inkscape:connector-curvature="0"
       sodipodi:nodetypes="ccscccscccssc"
       inkscape:export-filename="D:\Sourcecode\Article714\ansible714\documentation\using\img\backup_conventions.png"
       inkscape:export-xdpi="223.53999"
       inkscape:export-ydpi="223.53999" />
    <text
       xml:space="preserve"
       style="font-style:italic;font-variant:normal;font-weight:normal;font-stretch:normal;font-size:1.25223px;line-height:1.25;font-family:sans-serif;-inkscape-font-specification:'sans-serif, Italic';font-variant-ligatures:normal;font-variant-caps:normal;font-variant-numeric:normal;font-variant-east-asian:normal;text-align:center;text-anchor:middle;fill:#240d8d;fill-opacity:1;stroke:none;stroke-width:0.0782642"
       x="48.279438"
       y="9.8072119"
       id="text74621"
       transform="scale(0.92697555,1.0787771)"
       inkscape:export-filename="D:\Sourcecode\Article714\ansible714\documentation\using\img\backup_conventions.png"
       inkscape:export-xdpi="223.53999"
       inkscape:export-ydpi="223.53999"><tspan
         style="font-style:italic;font-variant:normal;font-weight:normal;font-stretch:normal;font-size:1.25223px;font-family:sans-serif;-inkscape-font-specification:'sans-serif, Italic';font-variant-ligatures:normal;font-variant-caps:normal;font-variant-numeric:normal;font-variant-east-asian:normal;text-align:center;text-anchor:middle;fill:#240d8d;fill-opacity:1;stroke-width:0.0782642"
         x="48.279438"
         y="9.8072119"
         sodipodi:role="line"
         id="tspan114030">{{ node_backup</tspan><tspan
         style="font-style:italic;font-variant:normal;font-weight:normal;font-stretch:normal;font-size:1.25223px;font-family:sans-serif;-inkscape-font-specification:'sans-serif, Italic';font-variant-ligatures:normal;font-variant-caps:normal;font-variant-numeric:normal;font-variant-east-asian:normal;text-align:center;text-anchor:middle;fill:#240d8d;fill-opacity:1;stroke-width:0.0782642"
         x="48.279438"
         y="11.372499"
         sodipodi:role="line"
         id="tspan16383">_root_dir }}</tspan></text>
    <rect
       style="fill:none;stroke:#093887;stroke-width:0.247356;stroke-miterlimit:4;stroke-dasharray:none;stroke-dashoffset:0;stroke-opacity:1"
       id="rect63592-6"
       width="53.822296"
       height="27.831583"
       x="66.410446"
       y="4.0669804"
       ry="3.0150881"
       rx="3.1413789"
       inkscape:connector-avoid="true"
       inkscape:export-filename="D:\Sourcecode\Article714\ansible714\documentation\using\img\backup_conventions.png"
       inkscape:export-xdpi="223.53999"
       inkscape:export-ydpi="223.53999" />
    <rect
       style="fill:none;stroke:#cca400;stroke-width:0.0778905;stroke-miterlimit:4;stroke-dasharray:none;stroke-dashoffset:0;stroke-opacity:1"
       id="rect63592-5-3"
       width="21.186539"
       height="7.0106726"
       x="97.355919"
       y="7.4062672"
       ry="0.75948948"
       rx="1.2365685"
       inkscape:connector-avoid="true"
       inkscape:export-filename="D:\Sourcecode\Article714\ansible714\documentation\using\img\backup_conventions.png"
       inkscape:export-xdpi="223.53999"
       inkscape:export-ydpi="223.53999" />
    <text
       xml:space="preserve"
       style="font-style:italic;font-variant:normal;font-weight:normal;font-stretch:normal;font-size:1.87834px;line-height:0%;font-family:sans-serif;-inkscape-font-specification:'sans-serif, Italic';font-variant-ligatures:normal;font-variant-caps:normal;font-variant-numeric:normal;font-variant-east-asian:normal;text-align:start;letter-spacing:0px;word-spacing:0px;text-anchor:start;display:inline;fill:#093887;fill-opacity:1;stroke:none;stroke-width:0.0327757px;stroke-linecap:butt;stroke-linejoin:miter;stroke-opacity:1"
       x="95.360703"
       y="33.420788"
       id="text19650-9-3-8-2-2"
       transform="matrix(0.9259657,-0.05034103,0.04325722,1.0776019,0,0)"
       inkscape:export-filename="D:\Sourcecode\Article714\ansible714\documentation\using\img\backup_conventions.png"
       inkscape:export-xdpi="223.53999"
       inkscape:export-ydpi="223.53999"><tspan
         sodipodi:role="line"
         id="tspan19652-3-6-7-8-3"
         x="95.360703"
         y="33.420788"
         style="font-style:italic;font-variant:normal;font-weight:normal;font-stretch:normal;font-size:1.87834px;line-height:1.25;font-family:sans-serif;-inkscape-font-specification:'sans-serif, Italic';font-variant-ligatures:normal;font-variant-caps:normal;font-variant-numeric:normal;font-variant-east-asian:normal;fill:#093887;fill-opacity:1;stroke-width:0.0327757px">another_node</tspan></text>
    <text
       xml:space="preserve"
       style="font-style:italic;font-variant:normal;font-weight:normal;font-stretch:normal;font-size:1.87834px;line-height:0%;font-family:sans-serif;-inkscape-font-specification:'sans-serif, Italic';font-variant-ligatures:normal;font-variant-caps:normal;font-variant-numeric:normal;font-variant-east-asian:normal;text-align:start;letter-spacing:0px;word-spacing:0px;text-anchor:start;display:inline;fill:#cca400;fill-opacity:1;stroke:none;stroke-width:0.0327757px;stroke-linecap:butt;stroke-linejoin:miter;stroke-opacity:1"
       x="106.56333"
       y="16.189306"
       id="text19650-9-3-8-2-7-6-9"
       transform="matrix(0.9259657,-0.05034103,0.04325722,1.0776019,0,0)"
       inkscape:export-filename="D:\Sourcecode\Article714\ansible714\documentation\using\img\backup_conventions.png"
       inkscape:export-xdpi="223.53999"
       inkscape:export-ydpi="223.53999"><tspan
         sodipodi:role="line"
         id="tspan19652-3-6-7-8-1-7-59"
         x="106.56333"
         y="16.189306"
         style="font-style:italic;font-variant:normal;font-weight:normal;font-stretch:normal;font-size:1.87834px;line-height:1.25;font-family:sans-serif;-inkscape-font-specification:'sans-serif, Italic';font-variant-ligatures:normal;font-variant-caps:normal;font-variant-numeric:normal;font-variant-east-asian:normal;fill:#cca400;fill-opacity:1;stroke-width:0.0327757px">second_svc (part 2)</tspan></text>
    <rect
       style="fill:none;stroke:#cca400;stroke-width:0.0655749;stroke-miterlimit:4;stroke-dasharray:none;stroke-dashoffset:0;stroke-opacity:1"
       id="rect63592-5-9-6"
       width="14.990091"
       height="7.0229883"
       x="97.349754"
       y="15.436253"
       ry="0.76082367"
       rx="0.87490809"
       inkscape:connector-avoid="true"
       inkscape:export-filename="D:\Sourcecode\Article714\ansible714\documentation\using\img\backup_conventions.png"
       inkscape:export-xdpi="223.53999"
       inkscape:export-ydpi="223.53999" />
    <text
       xml:space="preserve"
       style="font-style:italic;font-variant:normal;font-weight:normal;font-stretch:normal;font-size:1.87834px;line-height:0%;font-family:sans-serif;-inkscape-font-specification:'sans-serif, Italic';font-variant-ligatures:normal;font-variant-caps:normal;font-variant-numeric:normal;font-variant-east-asian:normal;text-align:start;letter-spacing:0px;word-spacing:0px;text-anchor:start;display:inline;fill:#cca400;fill-opacity:1;stroke:none;stroke-width:0.0327757px;stroke-linecap:butt;stroke-linejoin:miter;stroke-opacity:1"
       x="107.23537"
       y="23.397663"
       id="text19650-9-3-8-2-7-6-5-8"
       transform="matrix(0.9259657,-0.05034103,0.04325722,1.0776019,0,0)"
       inkscape:export-filename="D:\Sourcecode\Article714\ansible714\documentation\using\img\backup_conventions.png"
       inkscape:export-xdpi="223.53999"
       inkscape:export-ydpi="223.53999"><tspan
         sodipodi:role="line"
         id="tspan19652-3-6-7-8-1-7-5-5"
         x="107.23537"
         y="23.397663"
         style="font-style:italic;font-variant:normal;font-weight:normal;font-stretch:normal;font-size:1.87834px;line-height:1.25;font-family:sans-serif;-inkscape-font-specification:'sans-serif, Italic';font-variant-ligatures:normal;font-variant-caps:normal;font-variant-numeric:normal;font-variant-east-asian:normal;fill:#cca400;fill-opacity:1;stroke-width:0.0327757px">third_svc</tspan></text>
    <path
       style="display:inline;fill:none;fill-opacity:1;fill-rule:nonzero;stroke:#240d8d;stroke-width:0.295837;stroke-miterlimit:4;stroke-dasharray:none;stroke-dashoffset:0;stroke-opacity:1"
       d="m 69.441124,6.5907887 c 0,0 0.134631,0.99555 0.134631,1.876685 -0.01111,0.05517 -0.01693,0.112376 -0.01715,0.171052 l -0.02913,6.2817213 c 1.436214,-0.183307 4.932628,-0.338055 6.094085,-0.351258 2.436613,-0.01898 4.222627,0.318892 4.222627,0.318892 l -0.1457,-6.2493553 c -0.01099,-0.458793 -0.358034,-0.828443 -0.802839,-0.828443 l -6.327457,0.02313 c -0.218533,0.01841 -0.208244,-0.216114 -0.246101,-0.290918 l -0.03243,-0.153208 c -0.09487,-0.448381 -0.359297,-0.792281 -0.802926,-0.828356 0,0 -1.084193,0.180103 -2.047605,0.03007 z"
       id="rect64220-5-3-0-9"
       inkscape:connector-curvature="0"
       sodipodi:nodetypes="ccscccscccssc"
       inkscape:connector-avoid="true"
       inkscape:export-filename="D:\Sourcecode\Article714\ansible714\documentation\using\img\backup_conventions.png"
       inkscape:export-xdpi="223.53999"
       inkscape:export-ydpi="223.53999" />
    <text
       xml:space="preserve"
       style="font-style:italic;font-variant:normal;font-weight:normal;font-stretch:normal;font-size:1.25223px;line-height:1.25;font-family:sans-serif;-inkscape-font-specification:'sans-serif, Italic';font-variant-ligatures:normal;font-variant-caps:normal;font-variant-numeric:normal;font-variant-east-asian:normal;text-align:center;text-anchor:middle;fill:#240d8d;fill-opacity:1;stroke:none;stroke-width:0.0782642"
       x="80.500267"
       y="9.7317677"
       id="text74621-29"
       transform="scale(0.92697555,1.0787771)"
       inkscape:export-filename="D:\Sourcecode\Article714\ansible714\documentation\using\img\backup_conventions.png"
       inkscape:export-xdpi="223.53999"
       inkscape:export-ydpi="223.53999"><tspan
         style="font-style:italic;font-variant:normal;font-weight:normal;font-stretch:normal;font-size:1.25223px;font-family:sans-serif;-inkscape-font-specification:'sans-serif, Italic';font-variant-ligatures:normal;font-variant-caps:normal;font-variant-numeric:normal;font-variant-east-asian:normal;text-align:center;text-anchor:middle;fill:#240d8d;fill-opacity:1;stroke-width:0.0782642"
         x="80.500267"
         y="9.7317677"
         sodipodi:role="line"
         id="tspan114030-5">{{ node_backup</tspan><tspan
         style="font-style:italic;font-variant:normal;font-weight:normal;font-stretch:normal;font-size:1.25223px;font-family:sans-serif;-inkscape-font-specification:'sans-serif, Italic';font-variant-ligatures:normal;font-variant-caps:normal;font-variant-numeric:normal;font-variant-east-asian:normal;text-align:center;text-anchor:middle;fill:#240d8d;fill-opacity:1;stroke-width:0.0782642"
         x="80.500267"
         y="11.297055"
         sodipodi:role="line"
         id="tspan25495">_root_dir }}</tspan></text>
    <rect
       style="fill:none;stroke:#093887;stroke-width:0.235154;stroke-miterlimit:4;stroke-dasharray:none;stroke-dashoffset:0;stroke-opacity:1"
       id="rect63592-4"
       width="30.597977"
       height="44.245544"
       x="6.9479799"
       y="45.874947"
       ry="4.7932668"
       rx="3.4647756"
       inkscape:export-filename="D:\Sourcecode\Article714\ansible714\documentation\using\img\backup_conventions.png"
       inkscape:export-xdpi="223.53999"
       inkscape:export-ydpi="223.53999" />
    <text
       xml:space="preserve"
       style="font-style:italic;font-variant:normal;font-weight:normal;font-stretch:normal;font-size:1.87834px;line-height:0%;font-family:sans-serif;-inkscape-font-specification:'sans-serif, Italic';font-variant-ligatures:normal;font-variant-caps:normal;font-variant-numeric:normal;font-variant-east-asian:normal;text-align:start;letter-spacing:0px;word-spacing:0px;text-anchor:start;display:inline;fill:#093887;fill-opacity:1;stroke:none;stroke-width:0.0327757px;stroke-linecap:butt;stroke-linejoin:miter;stroke-opacity:1"
       x="13.12724"
       y="83.259933"
       id="text19650-9-3-8-2-1"
       transform="matrix(0.9259657,-0.05034103,0.04325722,1.0776019,0,0)"
       inkscape:export-filename="D:\Sourcecode\Article714\ansible714\documentation\using\img\backup_conventions.png"
       inkscape:export-xdpi="223.53999"
       inkscape:export-ydpi="223.53999"><tspan
         sodipodi:role="line"
         id="tspan19652-3-6-7-8-7"
         x="13.12724"
         y="83.259933"
         style="font-style:italic;font-variant:normal;font-weight:normal;font-stretch:normal;font-size:1.87834px;line-height:1.25;font-family:sans-serif;-inkscape-font-specification:'sans-serif, Italic';font-variant-ligatures:normal;font-variant-caps:normal;font-variant-numeric:normal;font-variant-east-asian:normal;fill:#093887;fill-opacity:1;stroke-width:0.0327757px">backup_node</tspan></text>
    <path
       style="display:inline;fill:none;fill-opacity:1;fill-rule:nonzero;stroke:#240d8d;stroke-width:0.292074;stroke-miterlimit:4;stroke-dasharray:none;stroke-dashoffset:0;stroke-opacity:1"
       d="m 9.9148422,47.781841 c 0,0 0.1338308,0.976188 0.1338308,1.840185 -0.01108,0.0541 -0.01677,0.11019 -0.01705,0.167723 l -0.02897,6.15954 c 1.427691,-0.179742 4.903343,-0.331479 6.057896,-0.344425 2.422148,-0.01861 4.197547,0.312689 4.197547,0.312689 L 20.11327,49.789749 C 20.102648,49.33988 19.757362,48.97742 19.315198,48.97742 l -6.289884,0.02268 c -0.217235,0.01805 -0.207003,-0.211911 -0.244637,-0.285261 l -0.03223,-0.150227 c -0.09432,-0.439661 -0.357166,-0.776871 -0.798152,-0.812244 0,0 -1.077758,0.1766 -2.0354441,0.02948 z"
       id="rect64220-5-3-0-5"
       inkscape:connector-curvature="0"
       sodipodi:nodetypes="ccscccscccssc"
       inkscape:export-filename="D:\Sourcecode\Article714\ansible714\documentation\using\img\backup_conventions.png"
       inkscape:export-xdpi="223.53999"
       inkscape:export-ydpi="223.53999" />
    <text
       xml:space="preserve"
       style="font-style:italic;font-variant:normal;font-weight:normal;font-stretch:normal;font-size:1.25223px;line-height:1.25;font-family:sans-serif;-inkscape-font-specification:'sans-serif, Italic';font-variant-ligatures:normal;font-variant-caps:normal;font-variant-numeric:normal;font-variant-east-asian:normal;fill:#674fd5;fill-opacity:1;stroke:none;stroke-width:0.0782642"
       x="125.84913"
       y="58.595535"
       id="text74621-2"
       transform="scale(0.92697555,1.0787771)"
       inkscape:export-filename="D:\Sourcecode\Article714\ansible714\documentation\using\img\backup_conventions.png"
       inkscape:export-xdpi="223.53999"
       inkscape:export-ydpi="223.53999"><tspan
         style="font-style:italic;font-variant:normal;font-weight:normal;font-stretch:normal;font-size:1.25223px;font-family:sans-serif;-inkscape-font-specification:'sans-serif, Italic';font-variant-ligatures:normal;font-variant-caps:normal;font-variant-numeric:normal;font-variant-east-asian:normal;text-align:center;text-anchor:middle;fill:#674fd5;fill-opacity:1;stroke-width:0.0782642"
         x="125.84913"
         y="58.595535"
         id="tspan74623-4"
         sodipodi:role="line" /><tspan
         style="font-style:italic;font-variant:normal;font-weight:normal;font-stretch:normal;font-size:1.25223px;font-family:sans-serif;-inkscape-font-specification:'sans-serif, Italic';font-variant-ligatures:normal;font-variant-caps:normal;font-variant-numeric:normal;font-variant-east-asian:normal;text-align:center;text-anchor:middle;fill:#674fd5;fill-opacity:1;stroke-width:0.0782642"
         x="125.84913"
         y="60.160824"
         sodipodi:role="line"
         id="tspan1622">cloud</tspan><tspan
         style="font-style:italic;font-variant:normal;font-weight:normal;font-stretch:normal;font-size:1.25223px;font-family:sans-serif;-inkscape-font-specification:'sans-serif, Italic';font-variant-ligatures:normal;font-variant-caps:normal;font-variant-numeric:normal;font-variant-east-asian:normal;text-align:center;text-anchor:middle;fill:#674fd5;fill-opacity:1;stroke-width:0.0782642"
         x="125.84913"
         y="61.726109"
         sodipodi:role="line"
         id="tspan105844">backup storage</tspan></text>
    <text
       xml:space="preserve"
       style="font-style:italic;font-variant:normal;font-weight:normal;font-stretch:normal;font-size:1.25223px;line-height:1.25;font-family:sans-serif;-inkscape-font-specification:'sans-serif, Italic';font-variant-ligatures:normal;font-variant-caps:normal;font-variant-numeric:normal;font-variant-east-asian:normal;fill:#240d8d;fill-opacity:1;stroke:none;stroke-width:0.0782642"
       x="16.612236"
       y="47.813332"
       id="text74621-2-9"
       transform="scale(0.92697555,1.0787771)"
       inkscape:export-filename="D:\Sourcecode\Article714\ansible714\documentation\using\img\backup_conventions.png"
       inkscape:export-xdpi="223.53999"
       inkscape:export-ydpi="223.53999"><tspan
         style="font-style:italic;font-variant:normal;font-weight:normal;font-stretch:normal;font-size:1.25223px;font-family:sans-serif;-inkscape-font-specification:'sans-serif, Italic';font-variant-ligatures:normal;font-variant-caps:normal;font-variant-numeric:normal;font-variant-east-asian:normal;text-align:center;text-anchor:middle;fill:#240d8d;fill-opacity:1;stroke-width:0.0782642"
         x="16.612236"
         y="47.813332"
         sodipodi:role="line"
         id="tspan27785">{{ backups</tspan><tspan
         style="font-style:italic;font-variant:normal;font-weight:normal;font-stretch:normal;font-size:1.25223px;font-family:sans-serif;-inkscape-font-specification:'sans-serif, Italic';font-variant-ligatures:normal;font-variant-caps:normal;font-variant-numeric:normal;font-variant-east-asian:normal;text-align:center;text-anchor:middle;fill:#240d8d;fill-opacity:1;stroke-width:0.0782642"
         x="16.612236"
         y="49.37862"
         sodipodi:role="line"
         id="tspan30453">_storage_dir }}</tspan></text>
    <path
       style="display:inline;fill:none;fill-rule:evenodd;stroke:#000000;stroke-width:0.219447;stroke-linecap:butt;stroke-linejoin:miter;stroke-miterlimit:4;stroke-dasharray:0.438893, 0.219447;stroke-dashoffset:0;stroke-opacity:1;marker-start:url(#Arrow1Lend);marker-end:url(#EmptyTriangleOutL)"
       d="m 43.457852,18.263679 v 25.65899 c 0,3.96875 -3.96875,7.9375 -7.9375,7.9375 H 20.162203"
       id="path117168"
       inkscape:connector-type="orthogonal"
       inkscape:connector-curvature="30"
       inkscape:export-filename="D:\Sourcecode\Article714\ansible714\documentation\using\img\backup_conventions.png"
       inkscape:export-xdpi="223.53999"
       inkscape:export-ydpi="223.53999" />
    <path
       style="display:inline;fill:none;fill-rule:evenodd;stroke:#000000;stroke-width:0.224694;stroke-linecap:butt;stroke-linejoin:miter;stroke-miterlimit:5.4;stroke-dasharray:0.449388, 0.224694;stroke-dashoffset:0;stroke-opacity:1;marker-start:url(#Arrow1Lend);marker-end:url(#EmptyTriangleOutL)"
       d="m 71.590938,17.925124 v 28.315211 c 0,3.96875 -3.96875,7.9375 -7.9375,7.9375 h -43.41117"
       id="path117168-8"
       inkscape:connector-type="orthogonal"
       inkscape:connector-curvature="30"
       inkscape:export-filename="D:\Sourcecode\Article714\ansible714\documentation\using\img\backup_conventions.png"
       inkscape:export-xdpi="223.53999"
       inkscape:export-ydpi="223.53999" />
    <text
       xml:space="preserve"
       style="font-style:italic;font-variant:normal;font-weight:normal;font-stretch:normal;font-size:1.25223px;line-height:0%;font-family:sans-serif;-inkscape-font-specification:'sans-serif, Italic';font-variant-ligatures:normal;font-variant-caps:normal;font-variant-numeric:normal;font-variant-east-asian:normal;text-align:start;letter-spacing:0px;word-spacing:0px;text-anchor:start;display:inline;fill:#cca400;fill-opacity:1;stroke:none;stroke-width:0.0327757px;stroke-linecap:butt;stroke-linejoin:miter;stroke-opacity:1"
       x="21.256407"
       y="57.734657"
       id="text19650-9-3-8-2-2-4-6"
       transform="matrix(0.9259657,-0.05034103,0.04325722,1.0776019,0,0)"
       inkscape:export-filename="D:\Sourcecode\Article714\ansible714\documentation\using\img\backup_conventions.png"
       inkscape:export-xdpi="223.53999"
       inkscape:export-ydpi="223.53999"><tspan
         sodipodi:role="line"
         id="tspan19652-3-6-7-8-3-0-2"
         x="21.256407"
         y="57.734657"
         style="font-style:italic;font-variant:normal;font-weight:normal;font-stretch:normal;font-size:1.25223px;line-height:1.25;font-family:sans-serif;-inkscape-font-specification:'sans-serif, Italic';font-variant-ligatures:normal;font-variant-caps:normal;font-variant-numeric:normal;font-variant-east-asian:normal;fill:#cca400;fill-opacity:1;stroke-width:0.0327757px">first_svc</tspan></text>
    <path
       style="display:inline;fill:none;fill-opacity:1;fill-rule:nonzero;stroke:#240d8d;stroke-width:0.207061;stroke-miterlimit:4;stroke-dasharray:none;stroke-dashoffset:0;stroke-opacity:1"
       d="m 21.178176,55.977694 c 0,0 0.122483,0.948962 0.122483,1.788864 -0.01015,0.05258 -0.01536,0.107114 -0.0156,0.163044 l -0.02651,5.987757 c 1.306593,-0.17472 4.487443,-0.322231 5.544073,-0.33482 2.21671,-0.0181 3.84152,0.30397 3.84152,0.30397 l -0.13255,-5.956907 c -0.01,-0.437319 -0.32572,-0.789671 -0.73038,-0.789671 l -5.75638,0.02205 c -0.19881,0.01755 -0.18945,-0.206001 -0.22389,-0.277305 l -0.0295,-0.146038 c -0.0863,-0.427399 -0.32688,-0.755205 -0.73046,-0.789592 0,0 -0.98634,0.171675 -1.8628,0.02866 z"
       id="rect64220-5-3-0-2-8-8"
       inkscape:connector-curvature="0"
       sodipodi:nodetypes="ccscccscccssc"
       inkscape:export-filename="D:\Sourcecode\Article714\ansible714\documentation\using\img\backup_conventions.png"
       inkscape:export-xdpi="223.53999"
       inkscape:export-ydpi="223.53999" />
    <path
       style="mix-blend-mode:normal;fill:url(#linearGradient2873);fill-opacity:1;stroke:#240d8d;stroke-width:0.7;stroke-linecap:butt;stroke-linejoin:miter;stroke-miterlimit:4;stroke-dasharray:none;stroke-opacity:1;filter:url(#filter33207-4-0-2-1)"
       d="m 33.889873,225.36021 25.17525,0.17011 -0.1701,0.3402 v -0.51031"
       id="path29238-7-6-8-6"
       transform="matrix(0.2742012,0,0,0.3191044,4.9528143,-11.87813)"
       inkscape:export-filename="D:\Sourcecode\Article714\ansible714\documentation\using\img\backup_conventions.png"
       inkscape:export-xdpi="223.53999"
       inkscape:export-ydpi="223.53999" />
    <text
       xml:space="preserve"
       style="font-style:italic;font-variant:normal;font-weight:normal;font-stretch:normal;font-size:1.25223px;line-height:0%;font-family:sans-serif;-inkscape-font-specification:'sans-serif, Italic';font-variant-ligatures:normal;font-variant-caps:normal;font-variant-numeric:normal;font-variant-east-asian:normal;text-align:start;letter-spacing:0px;word-spacing:0px;text-anchor:start;display:inline;fill:#cca400;fill-opacity:1;stroke:none;stroke-width:0.0327757px;stroke-linecap:butt;stroke-linejoin:miter;stroke-opacity:1"
       x="20.845844"
       y="66.065506"
       id="text19650-9-3-8-2-2-4-6-6"
       transform="matrix(0.9259657,-0.05034103,0.04325722,1.0776019,0,0)"
       inkscape:export-filename="D:\Sourcecode\Article714\ansible714\documentation\using\img\backup_conventions.png"
       inkscape:export-xdpi="223.53999"
       inkscape:export-ydpi="223.53999"><tspan
         sodipodi:role="line"
         id="tspan19652-3-6-7-8-3-0-2-0"
         x="20.845844"
         y="66.065506"
         style="font-style:italic;font-variant:normal;font-weight:normal;font-stretch:normal;font-size:1.41111px;line-height:1.25;font-family:sans-serif;-inkscape-font-specification:'sans-serif, Italic';font-variant-ligatures:normal;font-variant-caps:normal;font-variant-numeric:normal;font-variant-east-asian:normal;fill:#cca400;fill-opacity:1;stroke-width:0.0327757px">second_svc</tspan></text>
    <path
       style="display:inline;fill:none;fill-opacity:1;fill-rule:nonzero;stroke:#240d8d;stroke-width:0.207061;stroke-miterlimit:4;stroke-dasharray:none;stroke-dashoffset:0;stroke-opacity:1"
       d="m 21.178176,64.975693 c 0,0 0.122483,0.948962 0.122483,1.788864 -0.01015,0.05258 -0.01536,0.107114 -0.0156,0.163044 l -0.02651,5.987757 c 1.306593,-0.17472 4.487443,-0.322231 5.544073,-0.33482 2.21671,-0.0181 3.84152,0.30397 3.84152,0.30397 l -0.13255,-5.956907 c -0.01,-0.437319 -0.32572,-0.789671 -0.73038,-0.789671 l -5.75638,0.02205 c -0.19881,0.01755 -0.18945,-0.206001 -0.22389,-0.277305 l -0.0295,-0.146038 c -0.0863,-0.427399 -0.32688,-0.755205 -0.73046,-0.789592 0,0 -0.98634,0.171675 -1.8628,0.02866 z"
       id="rect64220-5-3-0-2-8-8-9"
       inkscape:connector-curvature="0"
       sodipodi:nodetypes="ccscccscccssc"
       inkscape:export-filename="D:\Sourcecode\Article714\ansible714\documentation\using\img\backup_conventions.png"
       inkscape:export-xdpi="223.53999"
       inkscape:export-ydpi="223.53999" />
    <path
       style="mix-blend-mode:normal;fill:url(#linearGradient9532);fill-opacity:1;stroke:#240d8d;stroke-width:0.7;stroke-linecap:butt;stroke-linejoin:miter;stroke-miterlimit:4;stroke-dasharray:none;stroke-opacity:1;filter:url(#filter33207-4-0-2-1-3)"
       d="m 33.889873,225.36021 25.17525,0.17011 -0.1701,0.3402 v -0.51031"
       id="path29238-7-6-8-6-7"
       transform="matrix(0.2742012,0,0,0.3191044,4.9528143,-2.7250385)"
       inkscape:export-filename="D:\Sourcecode\Article714\ansible714\documentation\using\img\backup_conventions.png"
       inkscape:export-xdpi="223.53999"
       inkscape:export-ydpi="223.53999" />
    <text
       xml:space="preserve"
       style="font-style:italic;font-variant:normal;font-weight:normal;font-stretch:normal;font-size:1.25223px;line-height:0%;font-family:sans-serif;-inkscape-font-specification:'sans-serif, Italic';font-variant-ligatures:normal;font-variant-caps:normal;font-variant-numeric:normal;font-variant-east-asian:normal;text-align:start;letter-spacing:0px;word-spacing:0px;text-anchor:start;display:inline;fill:#cca400;fill-opacity:1;stroke:none;stroke-width:0.0327757px;stroke-linecap:butt;stroke-linejoin:miter;stroke-opacity:1"
       x="57.644627"
       y="18.981846"
       id="text19650-9-3-8-2-2-4-6-64"
       transform="matrix(0.9259657,-0.05034103,0.04325722,1.0776019,0,0)"
       inkscape:export-filename="D:\Sourcecode\Article714\ansible714\documentation\using\img\backup_conventions.png"
       inkscape:export-xdpi="223.53999"
       inkscape:export-ydpi="223.53999"><tspan
         sodipodi:role="line"
         id="tspan19652-3-6-7-8-3-0-2-2"
         x="57.644627"
         y="18.981846"
         style="font-style:italic;font-variant:normal;font-weight:normal;font-stretch:normal;font-size:1.25223px;line-height:1.25;font-family:sans-serif;-inkscape-font-specification:'sans-serif, Italic';font-variant-ligatures:normal;font-variant-caps:normal;font-variant-numeric:normal;font-variant-east-asian:normal;fill:#cca400;fill-opacity:1;stroke-width:0.0327757px">first_svc</tspan></text>
    <path
       style="display:inline;fill:none;fill-opacity:1;fill-rule:nonzero;stroke:#240d8d;stroke-width:0.175135;stroke-miterlimit:4;stroke-dasharray:none;stroke-dashoffset:0;stroke-opacity:1"
       d="m 53.084519,13.628224 c 0,0 0.103598,0.802643 0.103598,1.513042 -0.0086,0.04447 -0.01299,0.0906 -0.0132,0.137905 l -0.02242,5.064516 c 1.105132,-0.147781 3.795532,-0.272547 4.689242,-0.283195 1.87492,-0.01531 3.249204,0.257101 3.249204,0.257101 L 60.97883,15.279171 c -0.0085,-0.36989 -0.275498,-0.667913 -0.617764,-0.667913 l -4.868814,0.01865 c -0.168153,0.01484 -0.160236,-0.174238 -0.189366,-0.234548 l -0.02495,-0.123521 c -0.07299,-0.361499 -0.276479,-0.638761 -0.617831,-0.667846 0,0 -0.834258,0.145205 -1.575579,0.02424 z"
       id="rect64220-5-3-0-2-8-8-5"
       inkscape:connector-curvature="0"
       sodipodi:nodetypes="ccscccscccssc"
       inkscape:export-filename="D:\Sourcecode\Article714\ansible714\documentation\using\img\backup_conventions.png"
       inkscape:export-xdpi="223.53999"
       inkscape:export-ydpi="223.53999" />
    <path
       style="mix-blend-mode:normal;fill:url(#linearGradient48948);fill-opacity:1;stroke:#240d8d;stroke-width:0.7;stroke-linecap:butt;stroke-linejoin:miter;stroke-miterlimit:4;stroke-dasharray:none;stroke-opacity:1;filter:url(#filter33207-4-0-2-1-9)"
       d="m 33.889873,225.36021 25.17525,0.17011 -0.1701,0.3402 v -0.51031"
       id="path29238-7-6-8-6-2"
       transform="matrix(0.2742012,0,0,0.3191044,36.970717,-55.470053)"
       inkscape:export-filename="D:\Sourcecode\Article714\ansible714\documentation\using\img\backup_conventions.png"
       inkscape:export-xdpi="223.53999"
       inkscape:export-ydpi="223.53999" />
    <path
       style="display:inline;fill:none;fill-opacity:1;fill-rule:nonzero;stroke:#240d8d;stroke-width:0.163943;stroke-miterlimit:4;stroke-dasharray:none;stroke-dashoffset:0;stroke-opacity:1"
       d="m 53.174697,21.356086 c 0,0 0.09698,0.751352 0.09698,1.416355 -0.008,0.04163 -0.01216,0.08481 -0.01235,0.129092 l -0.02099,4.740878 c 1.03451,-0.138337 3.552986,-0.255131 4.389585,-0.265098 1.755107,-0.01433 3.041569,0.240672 3.041569,0.240672 L 60.56454,22.901533 c -0.0079,-0.346253 -0.257892,-0.625232 -0.578287,-0.625232 l -4.557682,0.01746 c -0.15741,0.0139 -0.149999,-0.163104 -0.177267,-0.21956 l -0.02336,-0.115627 c -0.06833,-0.338398 -0.258812,-0.597943 -0.578351,-0.625169 0,0 -0.780946,0.135926 -1.474894,0.02269 z"
       id="rect64220-5-3-0-2-8-8-9-8"
       inkscape:connector-curvature="0"
       sodipodi:nodetypes="ccscccscccssc"
       inkscape:export-filename="D:\Sourcecode\Article714\ansible714\documentation\using\img\backup_conventions.png"
       inkscape:export-xdpi="223.53999"
       inkscape:export-ydpi="223.53999" />
    <path
       style="mix-blend-mode:normal;fill:url(#linearGradient48950);fill-opacity:1;stroke:#240d8d;stroke-width:0.7;stroke-linecap:butt;stroke-linejoin:miter;stroke-miterlimit:4;stroke-dasharray:none;stroke-opacity:1;filter:url(#filter33207-4-0-2-1-3-2)"
       d="m 33.889873,225.36021 25.17525,0.17011 -0.1701,0.3402 v -0.51031"
       id="path29238-7-6-8-6-7-8"
       transform="matrix(0.2742012,0,0,0.3191044,36.87421,-46.474221)"
       inkscape:export-filename="D:\Sourcecode\Article714\ansible714\documentation\using\img\backup_conventions.png"
       inkscape:export-xdpi="223.53999"
       inkscape:export-ydpi="223.53999" />
    <text
       xml:space="preserve"
       style="font-style:italic;font-variant:normal;font-weight:normal;font-stretch:normal;font-size:1.25223px;line-height:0%;font-family:sans-serif;-inkscape-font-specification:'sans-serif, Italic';font-variant-ligatures:normal;font-variant-caps:normal;font-variant-numeric:normal;font-variant-east-asian:normal;text-align:start;letter-spacing:0px;word-spacing:0px;text-anchor:start;display:inline;fill:#cca400;fill-opacity:1;stroke:none;stroke-width:0.0327757px;stroke-linecap:butt;stroke-linejoin:miter;stroke-opacity:1"
       x="20.488029"
       y="75.018181"
       id="text19650-9-3-8-2-2-4-6-6-5"
       transform="matrix(0.9259657,-0.05034103,0.04325722,1.0776019,0,0)"
       inkscape:export-filename="D:\Sourcecode\Article714\ansible714\documentation\using\img\backup_conventions.png"
       inkscape:export-xdpi="223.53999"
       inkscape:export-ydpi="223.53999"><tspan
         sodipodi:role="line"
         id="tspan19652-3-6-7-8-3-0-2-0-4"
         x="20.488029"
         y="75.018181"
         style="font-style:italic;font-variant:normal;font-weight:normal;font-stretch:normal;font-size:1.41111px;line-height:1.25;font-family:sans-serif;-inkscape-font-specification:'sans-serif, Italic';font-variant-ligatures:normal;font-variant-caps:normal;font-variant-numeric:normal;font-variant-east-asian:normal;fill:#cca400;fill-opacity:1;stroke-width:0.0327757px">third_svc</tspan></text>
    <path
       style="display:inline;fill:none;fill-opacity:1;fill-rule:nonzero;stroke:#240d8d;stroke-width:0.207061;stroke-miterlimit:4;stroke-dasharray:none;stroke-dashoffset:0;stroke-opacity:1"
       d="m 21.234119,74.641122 c 0,0 0.122483,0.948962 0.122483,1.788864 -0.01015,0.05258 -0.01536,0.107114 -0.0156,0.163044 l -0.02651,5.987757 c 1.306593,-0.17472 4.487443,-0.322231 5.544073,-0.33482 2.21671,-0.0181 3.84152,0.30397 3.84152,0.30397 l -0.13255,-5.956907 c -0.01,-0.437319 -0.32572,-0.789671 -0.73038,-0.789671 l -5.75638,0.02205 c -0.19881,0.01755 -0.18945,-0.206001 -0.22389,-0.277305 l -0.0295,-0.146038 c -0.0863,-0.427399 -0.32688,-0.755205 -0.73046,-0.789592 0,0 -0.98634,0.171675 -1.8628,0.02866 z"
       id="rect64220-5-3-0-2-8-8-9-0"
       inkscape:connector-curvature="0"
       sodipodi:nodetypes="ccscccscccssc"
       inkscape:export-filename="D:\Sourcecode\Article714\ansible714\documentation\using\img\backup_conventions.png"
       inkscape:export-xdpi="223.53999"
       inkscape:export-ydpi="223.53999" />
    <path
       style="mix-blend-mode:normal;fill:url(#linearGradient43070);fill-opacity:1;stroke:#240d8d;stroke-width:0.7;stroke-linecap:butt;stroke-linejoin:miter;stroke-miterlimit:4;stroke-dasharray:none;stroke-opacity:1;filter:url(#filter33207-4-0-2-1-3-0)"
       d="m 33.889873,225.36021 25.17525,0.17011 -0.1701,0.3402 v -0.51031"
       id="path29238-7-6-8-6-7-9"
       transform="matrix(0.2742012,0,0,0.3191044,5.0087571,6.9403895)"
       inkscape:export-filename="D:\Sourcecode\Article714\ansible714\documentation\using\img\backup_conventions.png"
       inkscape:export-xdpi="223.53999"
       inkscape:export-ydpi="223.53999" />
    <path
       style="fill:none;stroke:#240d8d;stroke-width:0.207;stroke-linecap:butt;stroke-linejoin:miter;stroke-miterlimit:4;stroke-dasharray:none;stroke-opacity:1"
       d="m 14.271001,55.524781 v 23.383498 0 -0.11577"
       id="path29072"
       inkscape:export-filename="D:\Sourcecode\Article714\ansible714\documentation\using\img\backup_conventions.png"
       inkscape:export-xdpi="223.53999"
       inkscape:export-ydpi="223.53999" />
    <path
       style="fill:none;stroke:#240d8d;stroke-width:0.207;stroke-linecap:butt;stroke-linejoin:miter;stroke-miterlimit:4;stroke-dasharray:none;stroke-opacity:1"
       d="m 46.166854,14.855881 v 10.583333 0 -0.0524"
       id="path29072-6"
       inkscape:export-filename="D:\Sourcecode\Article714\ansible714\documentation\using\img\backup_conventions.png"
       inkscape:export-xdpi="223.53999"
       inkscape:export-ydpi="223.53999" />
    <text
       xml:space="preserve"
       style="font-style:italic;font-variant:normal;font-weight:normal;font-stretch:normal;font-size:1.25223px;line-height:0%;font-family:sans-serif;-inkscape-font-specification:'sans-serif, Italic';font-variant-ligatures:normal;font-variant-caps:normal;font-variant-numeric:normal;font-variant-east-asian:normal;text-align:start;letter-spacing:0px;word-spacing:0px;text-anchor:start;display:inline;fill:#cca400;fill-opacity:1;stroke:none;stroke-width:0.0327757px;stroke-linecap:butt;stroke-linejoin:miter;stroke-opacity:1"
       x="89.293579"
       y="20.786068"
       id="text19650-9-3-8-2-2-4-6-64-1"
       transform="matrix(0.9259657,-0.05034103,0.04325722,1.0776019,0,0)"
       inkscape:export-filename="D:\Sourcecode\Article714\ansible714\documentation\using\img\backup_conventions.png"
       inkscape:export-xdpi="223.53999"
       inkscape:export-ydpi="223.53999"><tspan
         sodipodi:role="line"
         id="tspan19652-3-6-7-8-3-0-2-2-2"
         x="89.293579"
         y="20.786068"
         style="font-style:italic;font-variant:normal;font-weight:normal;font-stretch:normal;font-size:1.25223px;line-height:1.25;font-family:sans-serif;-inkscape-font-specification:'sans-serif, Italic';font-variant-ligatures:normal;font-variant-caps:normal;font-variant-numeric:normal;font-variant-east-asian:normal;fill:#cca400;fill-opacity:1;stroke-width:0.0327757px">second_svc</tspan></text>
    <text
       xml:space="preserve"
       style="font-style:italic;font-variant:normal;font-weight:normal;font-stretch:normal;font-size:1.25223px;line-height:0%;font-family:sans-serif;-inkscape-font-specification:'sans-serif, Italic';font-variant-ligatures:normal;font-variant-caps:normal;font-variant-numeric:normal;font-variant-east-asian:normal;text-align:start;letter-spacing:0px;word-spacing:0px;text-anchor:start;display:inline;fill:#cca400;fill-opacity:1;stroke:none;stroke-width:0.0327757px;stroke-linecap:butt;stroke-linejoin:miter;stroke-opacity:1"
       x="56.636349"
       y="26.454926"
       id="text19650-9-3-8-2-2-4-6-64-1-1"
       transform="matrix(0.9259657,-0.05034103,0.04325722,1.0776019,0,0)"
       inkscape:export-filename="D:\Sourcecode\Article714\ansible714\documentation\using\img\backup_conventions.png"
       inkscape:export-xdpi="223.53999"
       inkscape:export-ydpi="223.53999"><tspan
         sodipodi:role="line"
         id="tspan19652-3-6-7-8-3-0-2-2-2-1"
         x="56.636349"
         y="26.454926"
         style="font-style:italic;font-variant:normal;font-weight:normal;font-stretch:normal;font-size:1.25223px;line-height:1.25;font-family:sans-serif;-inkscape-font-specification:'sans-serif, Italic';font-variant-ligatures:normal;font-variant-caps:normal;font-variant-numeric:normal;font-variant-east-asian:normal;fill:#cca400;fill-opacity:1;stroke-width:0.0327757px">second_svc</tspan></text>
    <path
       style="display:inline;fill:none;fill-opacity:1;fill-rule:nonzero;stroke:#240d8d;stroke-width:0.175135;stroke-miterlimit:4;stroke-dasharray:none;stroke-dashoffset:0;stroke-opacity:1"
       d="m 82.997574,13.450048 c 0,0 0.103598,0.802643 0.103598,1.513042 -0.0086,0.04447 -0.01299,0.0906 -0.0132,0.137905 l -0.02242,5.064516 c 1.105132,-0.147781 3.795532,-0.272547 4.689242,-0.283195 1.87492,-0.01531 3.249204,0.257101 3.249204,0.257101 l -0.112113,-5.038422 c -0.0085,-0.36989 -0.275498,-0.667913 -0.617764,-0.667913 l -4.868814,0.01865 c -0.168153,0.01484 -0.160236,-0.174238 -0.189366,-0.234548 l -0.02495,-0.123521 c -0.07299,-0.361499 -0.276479,-0.638761 -0.617831,-0.667846 0,0 -0.834258,0.145205 -1.575579,0.02424 z"
       id="rect64220-5-3-0-2-8-8-5-7"
       inkscape:connector-curvature="0"
       sodipodi:nodetypes="ccscccscccssc"
       inkscape:export-filename="D:\Sourcecode\Article714\ansible714\documentation\using\img\backup_conventions.png"
       inkscape:export-xdpi="223.53999"
       inkscape:export-ydpi="223.53999" />
    <path
       style="mix-blend-mode:normal;fill:url(#linearGradient1173);fill-opacity:1;stroke:#240d8d;stroke-width:0.7;stroke-linecap:butt;stroke-linejoin:miter;stroke-miterlimit:4;stroke-dasharray:none;stroke-opacity:1;filter:url(#filter33207-4-0-2-1-9-9)"
       d="m 33.889873,225.36021 25.17525,0.17011 -0.1701,0.3402 v -0.51031"
       id="path29238-7-6-8-6-2-9"
       transform="matrix(0.2742012,0,0,0.3191044,66.883772,-55.648229)"
       inkscape:export-filename="D:\Sourcecode\Article714\ansible714\documentation\using\img\backup_conventions.png"
       inkscape:export-xdpi="223.53999"
       inkscape:export-ydpi="223.53999" />
    <text
       xml:space="preserve"
       style="font-style:italic;font-variant:normal;font-weight:normal;font-stretch:normal;font-size:1.25223px;line-height:0%;font-family:sans-serif;-inkscape-font-specification:'sans-serif, Italic';font-variant-ligatures:normal;font-variant-caps:normal;font-variant-numeric:normal;font-variant-east-asian:normal;text-align:start;letter-spacing:0px;word-spacing:0px;text-anchor:start;display:inline;fill:#cca400;fill-opacity:1;stroke:none;stroke-width:0.0327757px;stroke-linecap:butt;stroke-linejoin:miter;stroke-opacity:1"
       x="89.080864"
       y="27.797958"
       id="text19650-9-3-8-2-2-4-6-6-51-3"
       transform="matrix(0.9259657,-0.05034103,0.04325722,1.0776019,0,0)"
       inkscape:export-filename="D:\Sourcecode\Article714\ansible714\documentation\using\img\backup_conventions.png"
       inkscape:export-xdpi="223.53999"
       inkscape:export-ydpi="223.53999"><tspan
         sodipodi:role="line"
         id="tspan19652-3-6-7-8-3-0-2-0-2-7"
         x="89.080864"
         y="27.797958"
         style="font-style:italic;font-variant:normal;font-weight:normal;font-stretch:normal;font-size:1.41111px;line-height:1.25;font-family:sans-serif;-inkscape-font-specification:'sans-serif, Italic';font-variant-ligatures:normal;font-variant-caps:normal;font-variant-numeric:normal;font-variant-east-asian:normal;fill:#cca400;fill-opacity:1;stroke-width:0.0327757px">third_svc</tspan></text>
    <path
       style="display:inline;fill:none;fill-opacity:1;fill-rule:nonzero;stroke:#240d8d;stroke-width:0.163943;stroke-miterlimit:4;stroke-dasharray:none;stroke-dashoffset:0;stroke-opacity:1"
       d="m 83.087752,21.17791 c 0,0 0.09698,0.751352 0.09698,1.416355 -0.008,0.04163 -0.01216,0.08481 -0.01235,0.129092 l -0.02099,4.740878 c 1.03451,-0.138337 3.552986,-0.255131 4.389585,-0.265098 1.755107,-0.01433 3.041569,0.240672 3.041569,0.240672 l -0.104951,-4.716452 c -0.0079,-0.346253 -0.257892,-0.625232 -0.578287,-0.625232 l -4.557682,0.01746 c -0.15741,0.0139 -0.149999,-0.163104 -0.177267,-0.21956 l -0.02336,-0.115627 c -0.06833,-0.338398 -0.258812,-0.597943 -0.578351,-0.625169 0,0 -0.780946,0.135926 -1.474894,0.02269 z"
       id="rect64220-5-3-0-2-8-8-9-8-1"
       inkscape:connector-curvature="0"
       sodipodi:nodetypes="ccscccscccssc"
       inkscape:export-filename="D:\Sourcecode\Article714\ansible714\documentation\using\img\backup_conventions.png"
       inkscape:export-xdpi="223.53999"
       inkscape:export-ydpi="223.53999" />
    <path
       style="mix-blend-mode:normal;fill:url(#linearGradient1175);fill-opacity:1;stroke:#240d8d;stroke-width:0.7;stroke-linecap:butt;stroke-linejoin:miter;stroke-miterlimit:4;stroke-dasharray:none;stroke-opacity:1;filter:url(#filter33207-4-0-2-1-3-2-4)"
       d="m 33.889873,225.36021 25.17525,0.17011 -0.1701,0.3402 v -0.51031"
       id="path29238-7-6-8-6-7-8-3"
       transform="matrix(0.2742012,0,0,0.3191044,66.787265,-46.652397)"
       inkscape:export-filename="D:\Sourcecode\Article714\ansible714\documentation\using\img\backup_conventions.png"
       inkscape:export-xdpi="223.53999"
       inkscape:export-ydpi="223.53999" />
    <path
       style="fill:none;stroke:#240d8d;stroke-width:0.207;stroke-linecap:butt;stroke-linejoin:miter;stroke-miterlimit:4;stroke-dasharray:none;stroke-opacity:1"
       d="m 76.079909,14.677705 v 10.583333 0 -0.0524"
       id="path29072-6-1"
       inkscape:export-filename="D:\Sourcecode\Article714\ansible714\documentation\using\img\backup_conventions.png"
       inkscape:export-xdpi="223.53999"
       inkscape:export-ydpi="223.53999" />
    <text
       xml:space="preserve"
       style="font-style:italic;font-variant:normal;font-weight:normal;font-stretch:normal;font-size:2.82222px;line-height:1.25;font-family:'Bell MT';-inkscape-font-specification:'Bell MT, Italic';font-variant-ligatures:normal;font-variant-caps:normal;font-variant-numeric:normal;font-variant-east-asian:normal;fill:#000000;fill-opacity:1;stroke:none;stroke-width:0.264583"
       x="46.176502"
       y="52.8531"
       id="text8158"
       inkscape:export-filename="D:\Sourcecode\Article714\ansible714\documentation\using\img\backup_conventions.png"
       inkscape:export-xdpi="223.53999"
       inkscape:export-ydpi="223.53999"><tspan
         sodipodi:role="line"
         id="tspan33813"
         x="46.176502"
         y="52.8531">&lt;&lt;pull&gt;&gt;</tspan><tspan
         sodipodi:role="line"
         x="46.176502"
         y="56.380875"
         id="tspan8170">synchronization </tspan><tspan
         sodipodi:role="line"
         id="tspan33815"
         style="fill:#240d8d;fill-opacity:1"
         x="46.176502"
         y="59.908649"><tspan
   id="tspan1748"
   style="fill:#000000">using </tspan>rsync</tspan></text>
    <text
       xml:space="preserve"
       style="font-style:italic;font-variant:normal;font-weight:normal;font-stretch:normal;font-size:2.82222px;line-height:1.25;font-family:'Bell MT';-inkscape-font-specification:'Bell MT, Italic';font-variant-ligatures:normal;font-variant-caps:normal;font-variant-numeric:normal;font-variant-east-asian:normal;fill:#404040;fill-opacity:1;stroke:none;stroke-width:0.264583"
       x="99.394768"
       y="37.783924"
       id="text8158-8"
       inkscape:export-filename="D:\Sourcecode\Article714\ansible714\documentation\using\img\backup_conventions.png"
       inkscape:export-xdpi="223.53999"
       inkscape:export-ydpi="223.53999"><tspan
         sodipodi:role="line"
         id="tspan33813-8"
         x="99.394768"
         y="37.783924"
         style="font-style:normal;font-variant:normal;font-weight:normal;font-stretch:normal;font-size:2.82222px;font-family:Calibri;-inkscape-font-specification:'Calibri, Normal';font-variant-ligatures:normal;font-variant-caps:normal;font-variant-numeric:normal;font-variant-east-asian:normal;fill:#404040;fill-opacity:1">NodesToBackup</tspan><tspan
         sodipodi:role="line"
         style="fill:#404040;fill-opacity:1"
         x="99.394768"
         y="41.311699"
         id="tspan20570" /></text>
    <text
       xml:space="preserve"
       style="font-style:italic;font-variant:normal;font-weight:normal;font-stretch:normal;font-size:2.82222px;line-height:1.25;font-family:'Bell MT';-inkscape-font-specification:'Bell MT, Italic';font-variant-ligatures:normal;font-variant-caps:normal;font-variant-numeric:normal;font-variant-east-asian:normal;fill:#404040;fill-opacity:1;stroke:none;stroke-width:0.264583"
       x="14.003046"
       y="94.793686"
       id="text8158-8-7"
       inkscape:export-filename="D:\Sourcecode\Article714\ansible714\documentation\using\img\backup_conventions.png"
       inkscape:export-xdpi="223.53999"
       inkscape:export-ydpi="223.53999"><tspan
         sodipodi:role="line"
         id="tspan33813-8-9"
         x="14.003046"
         y="94.793686"
         style="font-style:normal;font-variant:normal;font-weight:normal;font-stretch:normal;font-size:2.82222px;font-family:Calibri;-inkscape-font-specification:'Calibri, Normal';font-variant-ligatures:normal;font-variant-caps:normal;font-variant-numeric:normal;font-variant-east-asian:normal;fill:#404040;fill-opacity:1">BackupStorageNodes</tspan><tspan
         sodipodi:role="line"
         style="fill:#404040;fill-opacity:1"
         x="14.003046"
         y="98.321465"
         id="tspan20570-8" /></text>
    <text
       xml:space="preserve"
       style="font-style:italic;font-variant:normal;font-weight:normal;font-stretch:normal;font-size:2.82222px;line-height:1.25;font-family:'Bell MT';-inkscape-font-specification:'Bell MT, Italic';font-variant-ligatures:normal;font-variant-caps:normal;font-variant-numeric:normal;font-variant-east-asian:normal;fill:#000000;fill-opacity:1;stroke:none;stroke-width:0.264583"
       x="87.021072"
       y="64.002007"
       id="text8158-5"
       inkscape:export-filename="D:\Sourcecode\Article714\ansible714\documentation\using\img\backup_conventions.png"
       inkscape:export-xdpi="223.53999"
       inkscape:export-ydpi="223.53999"><tspan
         sodipodi:role="line"
         id="tspan33813-7"
         x="87.021072"
         y="64.002007">&lt;&lt;push&gt;&gt; </tspan><tspan
         sodipodi:role="line"
         x="87.021072"
         y="67.529785"
         id="tspan6680">synchronization</tspan><tspan
         sodipodi:role="line"
         id="tspan33815-4"
         style="fill:#674fd5;fill-opacity:1"
         x="87.021072"
         y="71.057556"><tspan
   id="tspan5514"
   style="fill:#000000">using </tspan>rclone</tspan></text>
    <path
       style="display:inline;fill:none;fill-rule:evenodd;stroke:#000000;stroke-width:0.276689;stroke-linecap:butt;stroke-linejoin:miter;stroke-miterlimit:4;stroke-dasharray:1.10675, 2.21351;stroke-dashoffset:0;stroke-opacity:1;marker-end:url(#Arrow1Lend)"
       d="m 73.816215,14.774619 v 42.44967 c 0,3.96875 3.96875,7.9375 7.9375,7.9375 h 28.523935"
       id="path13715"
       inkscape:connector-type="orthogonal"
       inkscape:connector-curvature="30"
       inkscape:export-filename="D:\Sourcecode\Article714\ansible714\documentation\using\img\backup_conventions.png"
       inkscape:export-xdpi="223.53999"
       inkscape:export-ydpi="223.53999" />
    <path
       d="m 120.03323,57.343303 c -1.30372,-0.349332 -2.62307,0.05044 -3.53389,0.918933 -0.47587,-0.571986 -1.12021,-1.013442 -1.89308,-1.220518 -1.98905,-0.532954 -4.03813,0.650073 -4.5711,2.63913 -0.0392,0.146157 -0.0495,0.293132 -0.0705,0.439313 -1.79124,-0.186199 -3.50517,0.935163 -3.98602,2.729762 -0.47647,1.778177 0.42264,3.59642 2.03864,4.344013 -0.0878,0.190483 -0.16973,0.386723 -0.22585,0.596112 -0.53296,1.989058 0.65125,4.033736 2.6403,4.56669 0.97425,0.261083 1.9588,0.107774 2.7761,-0.347309 0.45043,0.963623 1.29025,1.739193 2.39734,2.035816 1.57957,0.423253 3.18243,-0.247214 4.04778,-1.532287 0.35054,0.248155 0.74016,0.453424 1.17907,0.57105 1.98905,0.532954 4.03372,-0.651281 4.56669,-2.640337 0.268,-1.000197 0.10217,-2.012388 -0.38162,-2.841942 0.47879,-0.456555 0.85357,-1.034874 1.0372,-1.720197 0.53297,-1.98908 -0.65124,-4.033759 -2.6403,-4.566713 -0.20938,-0.05608 -0.41912,-0.08767 -0.62795,-0.106837 0.12377,-1.746706 -0.99884,-3.39469 -2.75284,-3.864679 z"
       id="path4952"
       style="fill:none;fill-opacity:1;stroke:#000000;stroke-width:0.353;stroke-linecap:butt;stroke-linejoin:round;stroke-miterlimit:4;stroke-dasharray:none;stroke-dashoffset:0;stroke-opacity:1" />
  </g>
</svg>
