<?xml version="1.0" encoding="UTF-8" standalone="no"?>
<!-- Created with Inkscape (http://www.inkscape.org/) -->

<svg
   width="210mm"
   height="297mm"
   viewBox="0 0 210 297"
   version="1.1"
   id="svg2841"
   inkscape:version="1.1.1 (3bf5ae0d25, 2021-09-20)"
   sodipodi:docname="inventory_conventions.svg"
   xmlns:inkscape="http://www.inkscape.org/namespaces/inkscape"
   xmlns:sodipodi="http://sodipodi.sourceforge.net/DTD/sodipodi-0.dtd"
   xmlns:xlink="http://www.w3.org/1999/xlink"
   xmlns="http://www.w3.org/2000/svg"
   xmlns:svg="http://www.w3.org/2000/svg">
  <sodipodi:namedview
     id="namedview2843"
     pagecolor="#ffffff"
     bordercolor="#666666"
     borderopacity="1.0"
     inkscape:pageshadow="2"
     inkscape:pageopacity="0.0"
     inkscape:pagecheckerboard="0"
     inkscape:document-units="mm"
     showgrid="false"
     inkscape:connector-spacing="3"
     inkscape:zoom="1.5554293"
     inkscape:cx="-72.970208"
     inkscape:cy="252.98482"
     inkscape:window-width="2788"
     inkscape:window-height="1081"
     inkscape:window-x="1129"
     inkscape:window-y="286"
     inkscape:window-maximized="0"
     inkscape:current-layer="layer1" />
  <defs
     id="defs2838">
    <linearGradient
       inkscape:collect="always"
       id="linearGradient32773-1">
      <stop
         style="stop-color:#093887;stop-opacity:1;"
         offset="0"
         id="stop32769" />
      <stop
         style="stop-color:#093887;stop-opacity:0;"
         offset="1"
         id="stop32771" />
    </linearGradient>
    <linearGradient
       id="linearGradient32441"
       inkscape:swatch="solid">
      <stop
         style="stop-color:#000000;stop-opacity:1;"
         offset="0"
         id="stop32439" />
    </linearGradient>
    <marker
       style="overflow:visible"
       id="SquareL"
       refX="0.0"
       refY="0.0"
       orient="auto"
       inkscape:stockid="SquareL"
       inkscape:isstock="true">
      <path
         transform="scale(0.8)"
         style="fill-rule:evenodd;fill:context-stroke;stroke:context-stroke;stroke-width:1.0pt"
         d="M -5.0,-5.0 L -5.0,5.0 L 5.0,5.0 L 5.0,-5.0 L -5.0,-5.0 z "
         id="path28571" />
    </marker>
    <marker
       style="overflow:visible;"
       id="Arrow2Lend"
       refX="0.0"
       refY="0.0"
       orient="auto"
       inkscape:stockid="Arrow2Lend"
       inkscape:isstock="true">
      <path
         transform="scale(1.1) rotate(180) translate(1,0)"
         d="M 8.7185878,4.0337352 L -2.2072895,0.016013256 L 8.7185884,-4.0017078 C 6.9730900,-1.6296469 6.9831476,1.6157441 8.7185878,4.0337352 z "
         style="stroke:context-stroke;fill-rule:evenodd;fill:context-stroke;stroke-width:0.62500000;stroke-linejoin:round;"
         id="path28522" />
    </marker>
    <linearGradient
       inkscape:collect="always"
       xlink:href="#linearGradient32773-1"
       id="linearGradient32775"
       x1="29.597937"
       y1="107.50515"
       x2="54.603092"
       y2="107.50515"
       gradientUnits="userSpaceOnUse"
       gradientTransform="translate(0.17010309,81.876531)" />
    <filter
       inkscape:collect="always"
       style="color-interpolation-filters:sRGB"
       id="filter33207"
       x="-0.00039744898"
       y="-0.99276132"
       width="1.0326884"
       height="2.4439329">
      <feGaussianBlur
         inkscape:collect="always"
         stdDeviation="0.0027614341"
         id="feGaussianBlur33209" />
    </filter>
    <filter
       inkscape:collect="always"
       style="color-interpolation-filters:sRGB"
       id="filter33207-4"
       x="-0.00039744898"
       y="-0.99276132"
       width="1.0326884"
       height="2.4439329">
      <feGaussianBlur
         inkscape:collect="always"
         stdDeviation="0.0027614341"
         id="feGaussianBlur33209-7" />
    </filter>
    <linearGradient
       inkscape:collect="always"
       xlink:href="#linearGradient32773-1"
       id="linearGradient33476"
       gradientUnits="userSpaceOnUse"
       x1="29.597937"
       y1="107.50515"
       x2="54.603092"
       y2="107.50515"
       gradientTransform="translate(-0.78451893,42.045214)" />
    <filter
       inkscape:collect="always"
       style="color-interpolation-filters:sRGB"
       id="filter33207-4-0"
       x="-0.00039744898"
       y="-0.99276132"
       width="1.0326884"
       height="2.4439329">
      <feGaussianBlur
         inkscape:collect="always"
         stdDeviation="0.0027614341"
         id="feGaussianBlur33209-7-0" />
    </filter>
    <linearGradient
       inkscape:collect="always"
       xlink:href="#linearGradient32773-1"
       id="linearGradient40657"
       gradientUnits="userSpaceOnUse"
       gradientTransform="translate(-0.51120973,-0.82208933)"
       x1="29.597937"
       y1="107.50515"
       x2="54.603092"
       y2="107.50515" />
    <filter
       inkscape:collect="always"
       style="color-interpolation-filters:sRGB"
       id="filter33207-4-0-9"
       x="-0.00035718987"
       y="-0.69882904"
       width="1.0230402"
       height="1.7310045">
      <feGaussianBlur
         inkscape:collect="always"
         stdDeviation="0.0027614341"
         id="feGaussianBlur33209-7-0-1" />
    </filter>
    <linearGradient
       inkscape:collect="always"
       xlink:href="#linearGradient32773-1"
       id="linearGradient56893"
       gradientUnits="userSpaceOnUse"
       gradientTransform="translate(43.144927,19.444864)"
       x1="29.597937"
       y1="107.50515"
       x2="54.603092"
       y2="107.50515" />
    <filter
       inkscape:collect="always"
       style="color-interpolation-filters:sRGB"
       id="filter33207-4-0-9-8"
       x="-0.00035718989"
       y="-0.69882904"
       width="1.0230402"
       height="1.7310045">
      <feGaussianBlur
         inkscape:collect="always"
         stdDeviation="0.0027614341"
         id="feGaussianBlur33209-7-0-1-4" />
    </filter>
    <linearGradient
       inkscape:collect="always"
       xlink:href="#linearGradient32773-1"
       id="linearGradient57149"
       gradientUnits="userSpaceOnUse"
       gradientTransform="translate(43.144928,63.041609)"
       x1="29.597937"
       y1="107.50515"
       x2="54.603092"
       y2="107.50515" />
    <filter
       inkscape:collect="always"
       style="color-interpolation-filters:sRGB"
       id="filter33207-4-0-9-8-6"
       x="-0.00035718987"
       y="-0.69882904"
       width="1.0230402"
       height="1.7310045">
      <feGaussianBlur
         inkscape:collect="always"
         stdDeviation="0.0027614341"
         id="feGaussianBlur33209-7-0-1-4-1" />
    </filter>
    <linearGradient
       inkscape:collect="always"
       xlink:href="#linearGradient32773-1"
       id="linearGradient57201"
       gradientUnits="userSpaceOnUse"
       gradientTransform="translate(43.144927,102.8134)"
       x1="29.597937"
       y1="107.50515"
       x2="54.603092"
       y2="107.50515" />
    <filter
       inkscape:collect="always"
       style="color-interpolation-filters:sRGB"
       id="filter33207-4-0-9-8-6-8"
       x="-0.00035718989"
       y="-0.69882904"
       width="1.0230402"
       height="1.7310045">
      <feGaussianBlur
         inkscape:collect="always"
         stdDeviation="0.0027614341"
         id="feGaussianBlur33209-7-0-1-4-1-4" />
    </filter>
    <linearGradient
       inkscape:collect="always"
       xlink:href="#linearGradient32773-1"
       id="linearGradient57258"
       gradientUnits="userSpaceOnUse"
       gradientTransform="translate(43.390751,116.33626)"
       x1="29.597937"
       y1="107.50515"
       x2="54.603092"
       y2="107.50515" />
    <filter
       inkscape:collect="always"
       style="color-interpolation-filters:sRGB"
       id="filter33207-4-0-0"
       x="-0.00039744898"
       y="-0.99276132"
       width="1.0326884"
       height="2.4439329">
      <feGaussianBlur
         inkscape:collect="always"
         stdDeviation="0.0027614341"
         id="feGaussianBlur33209-7-0-2" />
    </filter>
    <linearGradient
       inkscape:collect="always"
       xlink:href="#linearGradient32773-1"
       id="linearGradient951"
       gradientUnits="userSpaceOnUse"
       gradientTransform="translate(-0.51120973,-0.82208933)"
       x1="29.597937"
       y1="107.50515"
       x2="54.603092"
       y2="107.50515" />
    <filter
       inkscape:collect="always"
       style="color-interpolation-filters:sRGB"
       id="filter33207-4-0-3"
       x="-0.00039744898"
       y="-0.99276132"
       width="1.0326884"
       height="2.4439329">
      <feGaussianBlur
         inkscape:collect="always"
         stdDeviation="0.0027614341"
         id="feGaussianBlur33209-7-0-8" />
    </filter>
    <linearGradient
       inkscape:collect="always"
       xlink:href="#linearGradient32773-1"
       id="linearGradient992"
       gradientUnits="userSpaceOnUse"
       gradientTransform="translate(-0.51120973,-0.82208933)"
       x1="29.597937"
       y1="107.50515"
       x2="54.603092"
       y2="107.50515" />
    <linearGradient
       inkscape:collect="always"
       xlink:href="#linearGradient32773-1"
       id="linearGradient992-8"
       gradientUnits="userSpaceOnUse"
       gradientTransform="translate(-0.51120973,-0.82208933)"
       x1="29.597937"
       y1="107.50515"
       x2="54.603092"
       y2="107.50515" />
    <filter
       inkscape:collect="always"
       style="color-interpolation-filters:sRGB"
       id="filter33207-4-0-3-9"
       x="-0.00039744898"
       y="-0.99276132"
       width="1.0326884"
       height="2.4439329">
      <feGaussianBlur
         inkscape:collect="always"
         stdDeviation="0.0027614341"
         id="feGaussianBlur33209-7-0-8-2" />
    </filter>
    <linearGradient
       inkscape:collect="always"
       xlink:href="#linearGradient32773-1"
       id="linearGradient56893-9"
       gradientUnits="userSpaceOnUse"
       gradientTransform="translate(43.144927,19.444864)"
       x1="29.597937"
       y1="107.50515"
       x2="54.603092"
       y2="107.50515" />
    <filter
       inkscape:collect="always"
       style="color-interpolation-filters:sRGB"
       id="filter33207-4-0-9-6"
       x="-0.00035718987"
       y="-0.69882904"
       width="1.0230402"
       height="1.7310045">
      <feGaussianBlur
         inkscape:collect="always"
         stdDeviation="0.0027614341"
         id="feGaussianBlur33209-7-0-1-3" />
    </filter>
    <linearGradient
       inkscape:collect="always"
       xlink:href="#linearGradient32773-1"
       id="linearGradient33476-6"
       gradientUnits="userSpaceOnUse"
       x1="29.597937"
       y1="107.50515"
       x2="54.603092"
       y2="107.50515"
       gradientTransform="translate(-0.78451893,42.045214)" />
    <filter
       inkscape:collect="always"
       style="color-interpolation-filters:sRGB"
       id="filter33207-4-5"
       x="-0.00039744898"
       y="-0.99276132"
       width="1.0326884"
       height="2.4439329">
      <feGaussianBlur
         inkscape:collect="always"
         stdDeviation="0.0027614341"
         id="feGaussianBlur33209-7-2" />
    </filter>
    <filter
       inkscape:collect="always"
       style="color-interpolation-filters:sRGB"
       id="filter33207-4-0-9-8-8"
       x="-0.00035718989"
       y="-0.69882904"
       width="1.0230402"
       height="1.7310045">
      <feGaussianBlur
         inkscape:collect="always"
         stdDeviation="0.0027614341"
         id="feGaussianBlur33209-7-0-1-4-8" />
    </filter>
    <linearGradient
       inkscape:collect="always"
       xlink:href="#linearGradient32773-1"
       id="linearGradient43067"
       gradientUnits="userSpaceOnUse"
       gradientTransform="translate(43.144928,63.041609)"
       x1="29.597937"
       y1="107.50515"
       x2="54.603092"
       y2="107.50515" />
    <linearGradient
       inkscape:collect="always"
       xlink:href="#linearGradient32773-1"
       id="linearGradient33476-3"
       gradientUnits="userSpaceOnUse"
       x1="29.597937"
       y1="107.50515"
       x2="54.603092"
       y2="107.50515"
       gradientTransform="translate(-0.78451893,42.045214)" />
    <filter
       inkscape:collect="always"
       style="color-interpolation-filters:sRGB"
       id="filter33207-4-4"
       x="-0.00039744898"
       y="-0.99276132"
       width="1.0326884"
       height="2.4439329">
      <feGaussianBlur
         inkscape:collect="always"
         stdDeviation="0.0027614341"
         id="feGaussianBlur33209-7-6" />
    </filter>
    <filter
       inkscape:collect="always"
       style="color-interpolation-filters:sRGB"
       id="filter33207-4-0-9-8-7"
       x="-0.00035718989"
       y="-0.69882904"
       width="1.0230402"
       height="1.7310045">
      <feGaussianBlur
         inkscape:collect="always"
         stdDeviation="0.0027614341"
         id="feGaussianBlur33209-7-0-1-4-4" />
    </filter>
    <linearGradient
       inkscape:collect="always"
       xlink:href="#linearGradient32773-1"
       id="linearGradient43143"
       gradientUnits="userSpaceOnUse"
       gradientTransform="translate(43.144928,63.041609)"
       x1="29.597937"
       y1="107.50515"
       x2="54.603092"
       y2="107.50515" />
  </defs>
  <g
     inkscape:label="Calque 1"
     inkscape:groupmode="layer"
     id="layer1">
    <path
       style="display:inline;fill:none;fill-opacity:1;fill-rule:nonzero;stroke:#093887;stroke-width:0.369672;stroke-miterlimit:4;stroke-dasharray:none;stroke-dashoffset:0;stroke-opacity:1"
       d="m 28.804752,111.45056 c 0,0 0.177303,1.1804 0.177303,2.22513 -0.01468,0.0654 -0.02224,0.13324 -0.0226,0.20281 l -0.03837,7.44805 c 1.8914,-0.21734 6.495928,-0.40082 8.025476,-0.41647 3.208852,-0.0225 5.560894,0.3781 5.560894,0.3781 l -0.191873,-7.40968 c -0.01409,-0.54397 -0.471504,-0.98226 -1.05728,-0.98226 l -8.332813,0.0274 c -0.287792,0.0218 -0.274237,-0.25624 -0.324095,-0.34493 l -0.04269,-0.18166 c -0.124962,-0.53163 -0.473172,-0.93939 -1.057392,-0.98215 0,0 -1.427806,0.21354 -2.69655,0.0356 z"
       id="rect64220-5"
       inkscape:connector-curvature="0"
       sodipodi:nodetypes="ccscccscccssc"
       inkscape:export-filename="D:\Sourcecode\Article714\ansible714\documentation\using\img\inventory_conventions.png"
       inkscape:export-xdpi="185.95"
       inkscape:export-ydpi="185.95" />
    <text
       xml:space="preserve"
       style="font-style:normal;font-weight:normal;font-size:0.527771px;line-height:0%;font-family:sans-serif;text-align:start;letter-spacing:0px;word-spacing:0px;text-anchor:start;display:inline;fill:#cca400;fill-opacity:1;stroke:none;stroke-width:0.0439808px;stroke-linecap:butt;stroke-linejoin:miter;stroke-opacity:1"
       x="12.921743"
       y="11.771481"
       id="text19650"
       transform="rotate(-2.6746733)"
       inkscape:export-filename="D:\Sourcecode\Article714\ansible714\documentation\using\img\inventory_conventions.png"
       inkscape:export-xdpi="185.95"
       inkscape:export-ydpi="185.95"><tspan
         sodipodi:role="line"
         id="tspan19652"
         x="12.921743"
         y="11.771481"
         style="font-style:normal;font-variant:normal;font-weight:normal;font-stretch:normal;font-size:2.52049px;line-height:1.25;font-family:sans-serif;-inkscape-font-specification:'sans-serif, Normal';font-variant-ligatures:normal;font-variant-caps:normal;font-variant-numeric:normal;font-variant-east-asian:normal;fill:#cca400;fill-opacity:1;stroke-width:0.0439808px">inventory</tspan></text>
    <text
       xml:space="preserve"
       style="font-style:normal;font-weight:normal;font-size:0.527771px;line-height:0%;font-family:sans-serif;text-align:start;letter-spacing:0px;word-spacing:0px;text-anchor:start;display:inline;fill:#cca400;fill-opacity:1;stroke:none;stroke-width:0.0439808px;stroke-linecap:butt;stroke-linejoin:miter;stroke-opacity:1"
       x="24.840256"
       y="118.79131"
       id="text19650-9-3-8"
       transform="rotate(-2.6746733)"
       inkscape:export-filename="D:\Sourcecode\Article714\ansible714\documentation\using\img\inventory_conventions.png"
       inkscape:export-xdpi="185.95"
       inkscape:export-ydpi="185.95"><tspan
         sodipodi:role="line"
         id="tspan19652-3-6-7"
         x="24.840256"
         y="118.79131"
         style="font-style:normal;font-variant:normal;font-weight:normal;font-stretch:normal;font-size:3.0806px;line-height:1.25;font-family:'Asana Math';-inkscape-font-specification:'Asana Math, Normal';font-variant-ligatures:normal;font-variant-caps:normal;font-variant-numeric:normal;font-variant-east-asian:normal;fill:#cca400;fill-opacity:1;stroke-width:0.0439808px">services</tspan></text>
    <text
       xml:space="preserve"
       style="font-style:italic;font-variant:normal;font-weight:normal;font-stretch:normal;font-size:2.52049px;line-height:0%;font-family:sans-serif;-inkscape-font-specification:'sans-serif, Italic';font-variant-ligatures:normal;font-variant-caps:normal;font-variant-numeric:normal;font-variant-east-asian:normal;text-align:start;letter-spacing:0px;word-spacing:0px;text-anchor:start;display:inline;fill:#093887;fill-opacity:1;stroke:none;stroke-width:0.0439808px;stroke-linecap:butt;stroke-linejoin:miter;stroke-opacity:1"
       x="46.390488"
       y="94.756767"
       id="text19650-9-3-8-2"
       transform="rotate(-2.6746733)"
       inkscape:export-filename="D:\Sourcecode\Article714\ansible714\documentation\using\img\inventory_conventions.png"
       inkscape:export-xdpi="185.95"
       inkscape:export-ydpi="185.95"><tspan
         sodipodi:role="line"
         id="tspan19652-3-6-7-8"
         x="46.390488"
         y="94.756767"
         style="font-style:italic;font-variant:normal;font-weight:normal;font-stretch:normal;font-size:2.52049px;line-height:1.25;font-family:sans-serif;-inkscape-font-specification:'sans-serif, Italic';font-variant-ligatures:normal;font-variant-caps:normal;font-variant-numeric:normal;font-variant-east-asian:normal;fill:#093887;fill-opacity:1;stroke-width:0.0439808px">my_host.yml</tspan></text>
    <text
       xml:space="preserve"
       style="font-style:italic;font-variant:normal;font-weight:normal;font-stretch:normal;font-size:2.52049px;line-height:0%;font-family:sans-serif;-inkscape-font-specification:'sans-serif, Italic';font-variant-ligatures:normal;font-variant-caps:normal;font-variant-numeric:normal;font-variant-east-asian:normal;text-align:start;letter-spacing:0px;word-spacing:0px;text-anchor:start;display:inline;fill:#093887;fill-opacity:1;stroke:none;stroke-width:0.0439808px;stroke-linecap:butt;stroke-linejoin:miter;stroke-opacity:1"
       x="65.140381"
       y="73.552971"
       id="text19650-9-3-8-2-3"
       transform="rotate(-2.6746733)"
       inkscape:export-filename="D:\Sourcecode\Article714\ansible714\documentation\using\img\inventory_conventions.png"
       inkscape:export-xdpi="185.95"
       inkscape:export-ydpi="185.95"><tspan
         sodipodi:role="line"
         id="tspan19652-3-6-7-8-4"
         x="65.140381"
         y="73.552971"
         style="font-style:italic;font-variant:normal;font-weight:normal;font-stretch:normal;font-size:2.52049px;line-height:1.25;font-family:sans-serif;-inkscape-font-specification:'sans-serif, Italic';font-variant-ligatures:normal;font-variant-caps:normal;font-variant-numeric:normal;font-variant-east-asian:normal;fill:#093887;fill-opacity:1;stroke-width:0.0439808px">some_config_file.cfg</tspan></text>
    <path
       style="display:inline;fill:none;fill-opacity:1;fill-rule:nonzero;stroke:#093887;stroke-width:0.369672;stroke-miterlimit:4;stroke-dasharray:none;stroke-dashoffset:0;stroke-opacity:1"
       d="m 12.351455,5.0713084 c 0,0 0.177302,1.180396 0.177302,2.225129 -0.01467,0.06541 -0.02224,0.133237 -0.0226,0.202808 l -0.03838,7.4480516 c 1.891401,-0.217339 6.495929,-0.400817 8.025477,-0.416477 3.208851,-0.02249 5.560894,0.378106 5.560894,0.378106 L 25.862275,7.4992454 c -0.01409,-0.543975 -0.471504,-0.982254 -1.05728,-0.982254 l -8.332813,0.02742 c -0.287792,0.02183 -0.274237,-0.256242 -0.324096,-0.344938 l -0.04269,-0.181654 c -0.124962,-0.531633 -0.473172,-0.939385 -1.057392,-0.982155 0,0 -1.427805,0.21354 -2.696549,0.03565 z"
       id="rect64220-5-8"
       inkscape:connector-curvature="0"
       sodipodi:nodetypes="ccscccscccssc"
       inkscape:export-filename="D:\Sourcecode\Article714\ansible714\documentation\using\img\inventory_conventions.png"
       inkscape:export-xdpi="185.95"
       inkscape:export-ydpi="185.95" />
    <path
       style="display:inline;fill:none;fill-opacity:1;fill-rule:evenodd;stroke:#cca400;stroke-width:0.202359;stroke-linecap:butt;stroke-linejoin:miter;stroke-miterlimit:4;stroke-dasharray:none;stroke-dashoffset:0;stroke-opacity:1"
       d="m 49.50231,89.107249 0.0055,0.0056 c -0.937607,-0.01917 -1.874129,0.140695 -2.809801,0.0078 0.165252,1.53834 0.08549,3.018288 0.09757,4.527426 0.566074,-0.01822 1.196764,-0.08763 1.752216,-0.08385 0.623771,0.0042 1.168431,0.08552 1.727833,0.137567 0.011,-1.226149 -0.01524,-2.557007 0.01159,-3.827246 0.0024,-0.114553 -3.97e-4,-0.118364 -3.97e-4,-0.118364 -0.116018,-0.540441 -0.349085,-0.592474 -0.672105,-0.637858 l -0.05232,-0.0059 -0.05405,3.97e-4 c -0.002,-0.002 -0.004,-0.0036 -0.006,-0.0056 z m 0.737106,0.604893 c -0.183233,0.02195 -0.308904,0.0185 -0.588361,-0.0036 -0.0424,-0.163042 -0.06334,-0.181737 -0.08228,-0.52841"
       id="path62705-8-7-0-6-4"
       inkscape:connector-curvature="0"
       sodipodi:nodetypes="ccccscscccccccc"
       inkscape:export-filename="D:\Sourcecode\Article714\ansible714\documentation\using\img\inventory_conventions.png"
       inkscape:export-xdpi="185.95"
       inkscape:export-ydpi="185.95" />
    <path
       style="fill:none;stroke:#093887;stroke-width:0.397;stroke-linecap:butt;stroke-linejoin:miter;stroke-miterlimit:4;stroke-dasharray:none;stroke-opacity:1"
       d="m 19.064642,14.421094 v 102.241796 0 -0.50615"
       id="path29072"
       inkscape:export-filename="D:\Sourcecode\Article714\ansible714\documentation\using\img\inventory_conventions.png"
       inkscape:export-xdpi="185.95"
       inkscape:export-ydpi="185.95" />
    <path
       style="fill:none;stroke:#093887;stroke-width:0.352416;stroke-linecap:butt;stroke-linejoin:miter;stroke-miterlimit:4;stroke-dasharray:none;stroke-opacity:1"
       d="m 36.146907,56.799893 v 4.900305 0 -0.02427"
       id="path29072-4"
       inkscape:export-filename="D:\Sourcecode\Article714\ansible714\documentation\using\img\inventory_conventions.png"
       inkscape:export-xdpi="185.95"
       inkscape:export-ydpi="185.95" />
    <path
       style="fill:none;stroke:#cca400;stroke-width:0.277849;stroke-linecap:butt;stroke-linejoin:miter;stroke-miterlimit:4;stroke-dasharray:0.555698, 0.277849;stroke-dashoffset:0;stroke-opacity:1"
       d="m 35.657833,87.978653 v 3.969275 0 -0.01965"
       id="path29072-6"
       inkscape:export-filename="D:\Sourcecode\Article714\ansible714\documentation\using\img\inventory_conventions.png"
       inkscape:export-xdpi="185.95"
       inkscape:export-ydpi="185.95" />
    <path
       style="opacity:1;mix-blend-mode:normal;fill:url(#linearGradient32775);fill-opacity:1;stroke:#093887;stroke-width:1;stroke-linecap:butt;stroke-linejoin:miter;stroke-miterlimit:4;stroke-dasharray:none;stroke-opacity:1;filter:url(#filter33207)"
       d="m 29.76804,189.38168 25.175257,0.17011 -0.170103,0.3402 v -0.51031"
       id="path29238"
       transform="matrix(0.38020937,0,0,0.40468899,7.8185966,39.818745)"
       inkscape:export-filename="D:\Sourcecode\Article714\ansible714\documentation\using\img\inventory_conventions.png"
       inkscape:export-xdpi="185.95"
       inkscape:export-ydpi="185.95" />
    <path
       style="display:inline;fill:none;fill-opacity:1;fill-rule:nonzero;stroke:#093887;stroke-width:0.369672;stroke-miterlimit:4;stroke-dasharray:none;stroke-dashoffset:0;stroke-opacity:1"
       d="m 28.802578,95.640429 c 0,0 0.177302,1.180394 0.177302,2.225131 -0.01467,0.06541 -0.02224,0.133237 -0.0226,0.202806 l -0.03837,7.448054 c 1.891401,-0.21734 6.495928,-0.40082 8.025476,-0.41648 3.208853,-0.0225 5.560894,0.37811 5.560894,0.37811 L 42.313403,98.068366 C 42.299312,97.524393 41.841897,97.08611 41.25612,97.08611 l -8.332811,0.02743 c -0.287792,0.02183 -0.274238,-0.256241 -0.324096,-0.344934 l -0.04269,-0.181654 c -0.124962,-0.531633 -0.473172,-0.939385 -1.057392,-0.982158 0,0 -1.427806,0.213543 -2.696549,0.03565 z"
       id="rect64220-5-3"
       inkscape:connector-curvature="0"
       sodipodi:nodetypes="ccscccscccssc"
       inkscape:export-filename="D:\Sourcecode\Article714\ansible714\documentation\using\img\inventory_conventions.png"
       inkscape:export-xdpi="185.95"
       inkscape:export-ydpi="185.95" />
    <text
       xml:space="preserve"
       style="font-style:normal;font-weight:normal;font-size:0.527771px;line-height:0%;font-family:sans-serif;text-align:start;letter-spacing:0px;word-spacing:0px;text-anchor:start;display:inline;fill:#cca400;fill-opacity:1;stroke:none;stroke-width:0.0439808px;stroke-linecap:butt;stroke-linejoin:miter;stroke-opacity:1"
       x="27.446981"
       y="103.08571"
       id="text19650-9-3-8-4"
       transform="rotate(-2.6746733)"
       inkscape:export-filename="D:\Sourcecode\Article714\ansible714\documentation\using\img\inventory_conventions.png"
       inkscape:export-xdpi="185.95"
       inkscape:export-ydpi="185.95"><tspan
         sodipodi:role="line"
         id="tspan19652-3-6-7-0"
         x="27.446981"
         y="103.08571"
         style="font-style:normal;font-variant:normal;font-weight:normal;font-stretch:normal;font-size:3.0806px;line-height:1.25;font-family:'Asana Math';-inkscape-font-specification:'Asana Math, Normal';font-variant-ligatures:normal;font-variant-caps:normal;font-variant-numeric:normal;font-variant-east-asian:normal;fill:#cca400;fill-opacity:1;stroke-width:0.0439808px">hosts</tspan></text>
    <text
       xml:space="preserve"
       style="font-style:normal;font-weight:normal;font-size:0.527771px;line-height:0%;font-family:sans-serif;text-align:start;letter-spacing:0px;word-spacing:0px;text-anchor:start;display:inline;fill:#093887;fill-opacity:1;stroke:none;stroke-width:0.0439808px;stroke-linecap:butt;stroke-linejoin:miter;stroke-opacity:1"
       x="45.044575"
       y="64.939957"
       id="text19650-9-3-8-4-0"
       transform="rotate(-2.6746733)"
       inkscape:export-filename="D:\Sourcecode\Article714\ansible714\documentation\using\img\inventory_conventions.png"
       inkscape:export-xdpi="185.95"
       inkscape:export-ydpi="185.95"><tspan
         sodipodi:role="line"
         id="tspan19652-3-6-7-0-0"
         x="45.044575"
         y="64.939957"
         style="font-style:normal;font-variant:normal;font-weight:normal;font-stretch:normal;font-size:3.0806px;line-height:1.25;font-family:'Asana Math';-inkscape-font-specification:'Asana Math, Normal';font-variant-ligatures:normal;font-variant-caps:normal;font-variant-numeric:normal;font-variant-east-asian:normal;fill:#093887;fill-opacity:1;stroke-width:0.0439808px">my_host</tspan></text>
    <path
       style="mix-blend-mode:normal;fill:url(#linearGradient33476);fill-opacity:1;stroke:#093887;stroke-width:1;stroke-linecap:butt;stroke-linejoin:miter;stroke-miterlimit:4;stroke-dasharray:none;stroke-opacity:1;filter:url(#filter33207-4)"
       d="m 28.813418,149.55039 25.175257,0.17011 -0.170103,0.3402 v -0.51031"
       id="path29238-7"
       transform="matrix(0.3901733,0,0,0.39692746,7.6810557,41.289545)"
       inkscape:export-filename="D:\Sourcecode\Article714\ansible714\documentation\using\img\inventory_conventions.png"
       inkscape:export-xdpi="185.95"
       inkscape:export-ydpi="185.95" />
    <path
       style="display:inline;fill:none;fill-opacity:1;fill-rule:nonzero;stroke:#093887;stroke-width:0.369672;stroke-miterlimit:4;stroke-dasharray:none;stroke-dashoffset:0;stroke-opacity:1"
       d="m 28.831688,78.625218 c 0,0 0.177302,1.180395 0.177302,2.225132 -0.01467,0.06541 -0.02224,0.133239 -0.0226,0.202808 l -0.03837,7.448054 c 1.891401,-0.217342 6.495928,-0.400821 8.025476,-0.416476 3.208854,-0.02251 5.560896,0.378101 5.560896,0.378101 l -0.191871,-7.409679 c -0.01409,-0.543976 -0.471506,-0.982259 -1.057284,-0.982259 l -8.332812,0.02743 c -0.287793,0.02183 -0.274238,-0.256241 -0.324096,-0.344934 l -0.04269,-0.181654 c -0.124962,-0.531633 -0.473172,-0.939384 -1.057392,-0.982157 0,0 -1.427806,0.213543 -2.696549,0.03564 z"
       id="rect64220-5-3-0"
       inkscape:connector-curvature="0"
       sodipodi:nodetypes="ccscccscccssc"
       inkscape:export-filename="D:\Sourcecode\Article714\ansible714\documentation\using\img\inventory_conventions.png"
       inkscape:export-xdpi="185.95"
       inkscape:export-ydpi="185.95" />
    <text
       xml:space="preserve"
       style="font-style:normal;font-weight:normal;font-size:0.527771px;line-height:0%;font-family:sans-serif;text-align:start;letter-spacing:0px;word-spacing:0px;text-anchor:start;display:inline;fill:#cca400;fill-opacity:1;stroke:none;stroke-width:0.0439808px;stroke-linecap:butt;stroke-linejoin:miter;stroke-opacity:1"
       x="25.543804"
       y="85.963036"
       id="text19650-9-3-8-4-2"
       transform="rotate(-2.6746733)"
       inkscape:export-filename="D:\Sourcecode\Article714\ansible714\documentation\using\img\inventory_conventions.png"
       inkscape:export-xdpi="185.95"
       inkscape:export-ydpi="185.95"><tspan
         sodipodi:role="line"
         id="tspan19652-3-6-7-0-7"
         x="25.543804"
         y="85.963036"
         style="font-style:normal;font-variant:normal;font-weight:normal;font-stretch:normal;font-size:3.0806px;line-height:1.25;font-family:'Asana Math';-inkscape-font-specification:'Asana Math, Normal';font-variant-ligatures:normal;font-variant-caps:normal;font-variant-numeric:normal;font-variant-east-asian:normal;fill:#cca400;fill-opacity:1;stroke-width:0.0439808px">host_vars</tspan></text>
    <path
       style="mix-blend-mode:normal;fill:url(#linearGradient40657);fill-opacity:1;stroke:#093887;stroke-width:1;stroke-linecap:butt;stroke-linejoin:miter;stroke-miterlimit:4;stroke-dasharray:none;stroke-opacity:1;filter:url(#filter33207-4-0)"
       d="m 29.086727,106.68309 25.175257,0.17011 -0.170103,0.3402 v -0.51031"
       id="path29238-7-6"
       transform="matrix(0.39692746,0,0,0.39692746,7.3164077,41.289545)"
       inkscape:export-filename="D:\Sourcecode\Article714\ansible714\documentation\using\img\inventory_conventions.png"
       inkscape:export-xdpi="185.95"
       inkscape:export-ydpi="185.95" />
    <path
       style="display:inline;fill:none;fill-opacity:1;fill-rule:nonzero;stroke:#093887;stroke-width:0.369672;stroke-miterlimit:4;stroke-dasharray:none;stroke-dashoffset:0;stroke-opacity:1"
       d="m 28.831688,67.161723 c 0,0 0.177302,1.180395 0.177302,2.225132 -0.01467,0.06541 -0.02224,0.133239 -0.0226,0.202808 l -0.03837,7.448054 c 1.891401,-0.217342 6.495928,-0.400821 8.025476,-0.416476 3.208854,-0.02251 5.560896,0.378101 5.560896,0.378101 l -0.191871,-7.409679 c -0.01409,-0.543976 -0.471506,-0.982259 -1.057284,-0.982259 l -8.332812,0.02743 c -0.287793,0.02183 -0.274238,-0.256241 -0.324096,-0.344934 l -0.04269,-0.181654 c -0.124962,-0.531633 -0.473172,-0.939384 -1.057392,-0.982157 0,0 -1.427806,0.213543 -2.696549,0.03564 z"
       id="rect64220-5-3-0-5"
       inkscape:connector-curvature="0"
       sodipodi:nodetypes="ccscccscccssc"
       inkscape:export-filename="D:\Sourcecode\Article714\ansible714\documentation\using\img\inventory_conventions.png"
       inkscape:export-xdpi="185.95"
       inkscape:export-ydpi="185.95" />
    <text
       xml:space="preserve"
       style="font-style:normal;font-weight:normal;font-size:0.705493px;line-height:0%;font-family:sans-serif;text-align:start;letter-spacing:0px;word-spacing:0px;text-anchor:start;display:inline;fill:#cca400;fill-opacity:1;stroke:none;stroke-width:0.0587909px;stroke-linecap:butt;stroke-linejoin:miter;stroke-opacity:1"
       x="25.578691"
       y="74.982697"
       id="text19650-9-3-8-4-2-5"
       transform="rotate(-2.6746733)"
       inkscape:export-filename="D:\Sourcecode\Article714\ansible714\documentation\using\img\inventory_conventions.png"
       inkscape:export-xdpi="185.95"
       inkscape:export-ydpi="185.95"><tspan
         sodipodi:role="line"
         id="tspan19652-3-6-7-0-7-7"
         x="25.578691"
         y="74.982697"
         style="font-style:normal;font-variant:normal;font-weight:normal;font-stretch:normal;font-size:2.82944px;line-height:1.25;font-family:'Asana Math';-inkscape-font-specification:'Asana Math, Normal';font-variant-ligatures:normal;font-variant-caps:normal;font-variant-numeric:normal;font-variant-east-asian:normal;fill:#cca400;fill-opacity:1;stroke-width:0.0587909px">group_vars</tspan></text>
    <path
       style="mix-blend-mode:normal;fill:url(#linearGradient951);fill-opacity:1;stroke:#093887;stroke-width:1;stroke-linecap:butt;stroke-linejoin:miter;stroke-miterlimit:4;stroke-dasharray:none;stroke-opacity:1;filter:url(#filter33207-4-0-0)"
       d="m 29.086727,106.68309 25.175257,0.17011 -0.170103,0.3402 v -0.51031"
       id="path29238-7-6-9"
       transform="matrix(0.38679623,0,0,0.39692746,7.7498169,29.82605)"
       inkscape:export-filename="D:\Sourcecode\Article714\ansible714\documentation\using\img\inventory_conventions.png"
       inkscape:export-xdpi="185.95"
       inkscape:export-ydpi="185.95" />
    <path
       style="display:inline;fill:none;fill-opacity:1;fill-rule:nonzero;stroke:#093887;stroke-width:0.369672;stroke-miterlimit:4;stroke-dasharray:none;stroke-dashoffset:0;stroke-opacity:1"
       d="m 29.094477,47.29498 c 0,0 0.177302,1.180395 0.177302,2.225132 -0.01467,0.06541 -0.02224,0.133239 -0.0226,0.202808 l -0.03837,7.448054 c 1.891401,-0.217342 6.495928,-0.400821 8.025476,-0.416476 3.208837,-0.02251 5.560865,0.378101 5.560865,0.378101 L 42.60528,49.72292 c -0.0141,-0.543976 -0.471497,-0.982259 -1.057274,-0.982259 l -8.332792,0.02743 c -0.287793,0.02183 -0.274238,-0.256241 -0.324096,-0.344934 l -0.04269,-0.181654 c -0.124962,-0.531633 -0.473172,-0.939384 -1.057392,-0.982157 0,0 -1.427806,0.213543 -2.696549,0.03564 z"
       id="rect64220-5-3-0-3"
       inkscape:connector-curvature="0"
       sodipodi:nodetypes="ccscccscccssc"
       inkscape:export-filename="D:\Sourcecode\Article714\ansible714\documentation\using\img\inventory_conventions.png"
       inkscape:export-xdpi="185.95"
       inkscape:export-ydpi="185.95" />
    <path
       style="display:inline;fill:none;fill-opacity:1;fill-rule:nonzero;stroke:#093887;stroke-width:0.369672;stroke-miterlimit:4;stroke-dasharray:none;stroke-dashoffset:0;stroke-opacity:1"
       d="m 46.482332,56.384725 c 0,0 0.177302,1.180395 0.177302,2.225132 -0.01467,0.06541 -0.02224,0.133239 -0.0226,0.202808 l -0.03837,7.448054 c 1.891401,-0.217342 6.495928,-0.400821 8.025476,-0.416476 3.208837,-0.02251 5.560865,0.378101 5.560865,0.378101 l -0.19187,-7.409679 c -0.0141,-0.543976 -0.471497,-0.982259 -1.057274,-0.982259 l -8.332792,0.02743 c -0.287793,0.02183 -0.274238,-0.256241 -0.324096,-0.344934 l -0.04269,-0.181654 c -0.124962,-0.531633 -0.473172,-0.939384 -1.057392,-0.982157 0,0 -1.427806,0.213543 -2.696549,0.03564 z"
       id="rect64220-5-3-0-3-7"
       inkscape:connector-curvature="0"
       sodipodi:nodetypes="ccscccscccssc"
       inkscape:export-filename="D:\Sourcecode\Article714\ansible714\documentation\using\img\inventory_conventions.png"
       inkscape:export-xdpi="185.95"
       inkscape:export-ydpi="185.95" />
    <text
       xml:space="preserve"
       style="font-style:normal;font-weight:normal;font-size:0.527771px;line-height:0%;font-family:sans-serif;text-align:start;letter-spacing:0px;word-spacing:0px;text-anchor:start;display:inline;fill:#cca400;fill-opacity:1;stroke:none;stroke-width:0.0439808px;stroke-linecap:butt;stroke-linejoin:miter;stroke-opacity:1"
       x="30.739399"
       y="54.84145"
       id="text19650-9-3-8-4-2-4"
       transform="rotate(-2.6746733)"
       inkscape:export-filename="D:\Sourcecode\Article714\ansible714\documentation\using\img\inventory_conventions.png"
       inkscape:export-xdpi="185.95"
       inkscape:export-ydpi="185.95"><tspan
         sodipodi:role="line"
         id="tspan19652-3-6-7-0-7-2"
         x="30.739399"
         y="54.84145"
         style="font-style:normal;font-variant:normal;font-weight:normal;font-stretch:normal;font-size:3.0806px;line-height:1.25;font-family:'Asana Math';-inkscape-font-specification:'Asana Math, Normal';font-variant-ligatures:normal;font-variant-caps:normal;font-variant-numeric:normal;font-variant-east-asian:normal;fill:#cca400;fill-opacity:1;stroke-width:0.0439808px">files</tspan></text>
    <path
       style="mix-blend-mode:normal;fill:url(#linearGradient992);fill-opacity:1;stroke:#093887;stroke-width:1;stroke-linecap:butt;stroke-linejoin:miter;stroke-miterlimit:4;stroke-dasharray:none;stroke-opacity:1;filter:url(#filter33207-4-0-3)"
       d="m 29.086727,106.68309 25.175257,0.17011 -0.170103,0.3402 v -0.51031"
       id="path29238-7-6-1"
       transform="matrix(0.39692746,0,0,0.39692746,7.4010918,9.9485361)"
       inkscape:export-filename="D:\Sourcecode\Article714\ansible714\documentation\using\img\inventory_conventions.png"
       inkscape:export-xdpi="185.95"
       inkscape:export-ydpi="185.95" />
    <path
       style="mix-blend-mode:normal;fill:url(#linearGradient992-8);fill-opacity:1;stroke:#093887;stroke-width:1;stroke-linecap:butt;stroke-linejoin:miter;stroke-miterlimit:4;stroke-dasharray:none;stroke-opacity:1;filter:url(#filter33207-4-0-3-9)"
       d="m 29.086727,106.68309 25.175257,0.17011 -0.170103,0.3402 v -0.51031"
       id="path29238-7-6-1-0"
       transform="matrix(0.39692746,0,0,0.39692746,24.615146,19.194682)"
       inkscape:export-filename="D:\Sourcecode\Article714\ansible714\documentation\using\img\inventory_conventions.png"
       inkscape:export-xdpi="185.95"
       inkscape:export-ydpi="185.95" />
    <path
       style="mix-blend-mode:normal;fill:url(#linearGradient56893);fill-opacity:1;stroke:#cca400;stroke-width:0.7;stroke-linecap:butt;stroke-linejoin:miter;stroke-miterlimit:4;stroke-dasharray:2.1, 0.7;stroke-dashoffset:0;stroke-opacity:1;filter:url(#filter33207-4-0-9)"
       d="m 72.742867,126.95005 25.175261,0.17011 -0.17011,0.3402 v -0.51031"
       id="path29238-7-6-2"
       transform="matrix(0.39692746,0,0,0.39692746,7.3164077,41.289545)"
       inkscape:export-filename="D:\Sourcecode\Article714\ansible714\documentation\using\img\inventory_conventions.png"
       inkscape:export-xdpi="185.95"
       inkscape:export-ydpi="185.95" />
    <path
       style="display:inline;fill:none;fill-opacity:1;fill-rule:evenodd;stroke:#cca400;stroke-width:0.202359;stroke-linecap:butt;stroke-linejoin:miter;stroke-miterlimit:4;stroke-dasharray:none;stroke-dashoffset:0;stroke-opacity:1"
       d="m 67.189919,67.17874 0.0055,0.0056 c -0.937607,-0.01917 -1.874129,0.140695 -2.809801,0.0078 0.165252,1.53834 0.08549,3.018288 0.09757,4.527426 0.566074,-0.01822 1.196764,-0.08763 1.752216,-0.08385 0.623771,0.0042 1.168431,0.08552 1.727833,0.137567 0.011,-1.226149 -0.01524,-2.557007 0.01159,-3.827246 0.0024,-0.114553 -3.97e-4,-0.118364 -3.97e-4,-0.118364 -0.116018,-0.540441 -0.349085,-0.592474 -0.672105,-0.637858 l -0.05232,-0.0059 -0.05405,3.97e-4 c -0.002,-0.002 -0.004,-0.0036 -0.006,-0.0056 z m 0.737106,0.604893 c -0.183233,0.02195 -0.308904,0.0185 -0.588361,-0.0036 -0.0424,-0.163042 -0.06334,-0.181737 -0.08228,-0.52841"
       id="path62705-8-7-0-6-4-6"
       inkscape:connector-curvature="0"
       sodipodi:nodetypes="ccccscscccccccc"
       inkscape:export-filename="D:\Sourcecode\Article714\ansible714\documentation\using\img\inventory_conventions.png"
       inkscape:export-xdpi="185.95"
       inkscape:export-ydpi="185.95" />
    <path
       style="fill:none;stroke:#cca400;stroke-width:0.277849;stroke-linecap:butt;stroke-linejoin:miter;stroke-miterlimit:4;stroke-dasharray:0.555698, 0.277849;stroke-dashoffset:0;stroke-opacity:1"
       d="m 53.345442,66.050144 v 3.969275 0 -0.01965"
       id="path29072-6-9"
       inkscape:export-filename="D:\Sourcecode\Article714\ansible714\documentation\using\img\inventory_conventions.png"
       inkscape:export-xdpi="185.95"
       inkscape:export-ydpi="185.95" />
    <path
       style="mix-blend-mode:normal;fill:url(#linearGradient56893-9);fill-opacity:1;stroke:#cca400;stroke-width:0.7;stroke-linecap:butt;stroke-linejoin:miter;stroke-miterlimit:4;stroke-dasharray:2.1, 0.7;stroke-dashoffset:0;stroke-opacity:1;filter:url(#filter33207-4-0-9-6)"
       d="m 72.742867,126.95005 25.175261,0.17011 -0.17011,0.3402 v -0.51031"
       id="path29238-7-6-2-3"
       transform="matrix(0.39692746,0,0,0.39692746,25.004017,19.361036)"
       inkscape:export-filename="D:\Sourcecode\Article714\ansible714\documentation\using\img\inventory_conventions.png"
       inkscape:export-xdpi="185.95"
       inkscape:export-ydpi="185.95" />
    <text
       xml:space="preserve"
       style="font-style:italic;font-variant:normal;font-weight:normal;font-stretch:normal;font-size:2.52049px;line-height:0%;font-family:sans-serif;-inkscape-font-specification:'sans-serif, Italic';font-variant-ligatures:normal;font-variant-caps:normal;font-variant-numeric:normal;font-variant-east-asian:normal;text-align:start;letter-spacing:0px;word-spacing:0px;text-anchor:start;display:inline;fill:#093887;fill-opacity:1;stroke:none;stroke-width:0.0439808px;stroke-linecap:butt;stroke-linejoin:miter;stroke-opacity:1"
       x="44.877438"
       y="128.04712"
       id="text19650-9-3-8-2-7-6"
       transform="rotate(-2.6746733)"
       inkscape:export-filename="D:\Sourcecode\Article714\ansible714\documentation\using\img\inventory_conventions.png"
       inkscape:export-xdpi="185.95"
       inkscape:export-ydpi="185.95"><tspan
         sodipodi:role="line"
         id="tspan19652-3-6-7-8-1-7"
         x="44.877438"
         y="128.04712"
         style="font-style:italic;font-variant:normal;font-weight:normal;font-stretch:normal;font-size:2.52049px;line-height:1.25;font-family:sans-serif;-inkscape-font-specification:'sans-serif, Italic';font-variant-ligatures:normal;font-variant-caps:normal;font-variant-numeric:normal;font-variant-east-asian:normal;fill:#093887;fill-opacity:1;stroke-width:0.0439808px">first_svc.yml</tspan></text>
    <path
       style="display:inline;fill:none;fill-opacity:1;fill-rule:evenodd;stroke:#cca400;stroke-width:0.202359;stroke-linecap:butt;stroke-linejoin:miter;stroke-miterlimit:4;stroke-dasharray:none;stroke-dashoffset:0;stroke-opacity:1"
       d="m 49.409743,122.43195 0.0055,0.006 c -0.937606,-0.0192 -1.874129,0.1407 -2.809806,0.008 0.165253,1.53834 0.08549,3.01829 0.09757,4.52743 0.566078,-0.0182 1.196768,-0.0876 1.75222,-0.0838 0.623772,0.004 1.168432,0.0855 1.727834,0.13757 0.01099,-1.22615 -0.01524,-2.55701 0.01159,-3.82725 0.0024,-0.11455 -3.97e-4,-0.11836 -3.97e-4,-0.11836 -0.116018,-0.54044 -0.349086,-0.59247 -0.672105,-0.63786 l -0.05232,-0.006 -0.05405,3.9e-4 c -0.002,-0.002 -0.004,-0.004 -0.006,-0.006 z m 0.737106,0.60489 c -0.183234,0.022 -0.308905,0.0185 -0.588362,-0.004 -0.0424,-0.16304 -0.06334,-0.18174 -0.08228,-0.52841"
       id="path62705-8-7-0-6-4-3-9"
       inkscape:connector-curvature="0"
       sodipodi:nodetypes="ccccscscccccccc"
       inkscape:export-filename="D:\Sourcecode\Article714\ansible714\documentation\using\img\inventory_conventions.png"
       inkscape:export-xdpi="185.95"
       inkscape:export-ydpi="185.95" />
    <text
       xml:space="preserve"
       style="font-style:italic;font-variant:normal;font-weight:normal;font-stretch:normal;font-size:2.52049px;line-height:0%;font-family:sans-serif;-inkscape-font-specification:'sans-serif, Italic';font-variant-ligatures:normal;font-variant-caps:normal;font-variant-numeric:normal;font-variant-east-asian:normal;text-align:start;letter-spacing:0px;word-spacing:0px;text-anchor:start;display:inline;fill:#093887;fill-opacity:1;stroke:none;stroke-width:0.0439808px;stroke-linecap:butt;stroke-linejoin:miter;stroke-opacity:1"
       x="45.582962"
       y="112.04266"
       id="text19650-9-3-8-2-9"
       transform="rotate(-2.6746733)"
       inkscape:export-filename="D:\Sourcecode\Article714\ansible714\documentation\using\img\inventory_conventions.png"
       inkscape:export-xdpi="185.95"
       inkscape:export-ydpi="185.95"><tspan
         sodipodi:role="line"
         id="tspan19652-3-6-7-8-3"
         x="45.582962"
         y="112.04266"
         style="font-style:italic;font-variant:normal;font-weight:normal;font-stretch:normal;font-size:2.52049px;line-height:1.25;font-family:sans-serif;-inkscape-font-specification:'sans-serif, Italic';font-variant-ligatures:normal;font-variant-caps:normal;font-variant-numeric:normal;font-variant-east-asian:normal;fill:#093887;fill-opacity:1;stroke-width:0.0439808px">my_host.yml</tspan></text>
    <path
       style="display:inline;fill:none;fill-opacity:1;fill-rule:evenodd;stroke:#cca400;stroke-width:0.202359;stroke-linecap:butt;stroke-linejoin:miter;stroke-miterlimit:4;stroke-dasharray:none;stroke-dashoffset:0;stroke-opacity:1"
       d="m 49.50231,106.412 0.0055,0.006 c -0.937607,-0.0192 -1.874129,0.1407 -2.809801,0.008 0.165252,1.53834 0.08549,3.01829 0.09757,4.52743 0.566074,-0.0182 1.196764,-0.0876 1.752216,-0.0838 0.623771,0.004 1.168431,0.0855 1.727833,0.13757 0.011,-1.22615 -0.01524,-2.55701 0.01159,-3.82725 0.0024,-0.11455 -3.97e-4,-0.11836 -3.97e-4,-0.11836 -0.116018,-0.54044 -0.349085,-0.59248 -0.672105,-0.63786 l -0.05232,-0.006 -0.05405,3.9e-4 c -0.002,-0.002 -0.004,-0.004 -0.006,-0.006 z m 0.737106,0.60489 c -0.183233,0.0219 -0.308904,0.0185 -0.588361,-0.004 -0.0424,-0.16304 -0.06334,-0.18174 -0.08228,-0.52841"
       id="path62705-8-7-0-6-4-1"
       inkscape:connector-curvature="0"
       sodipodi:nodetypes="ccccscscccccccc"
       inkscape:export-filename="D:\Sourcecode\Article714\ansible714\documentation\using\img\inventory_conventions.png"
       inkscape:export-xdpi="185.95"
       inkscape:export-ydpi="185.95" />
    <path
       style="fill:none;stroke:#cca400;stroke-width:0.277849;stroke-linecap:butt;stroke-linejoin:miter;stroke-miterlimit:4;stroke-dasharray:0.555698, 0.277849;stroke-dashoffset:0;stroke-opacity:1"
       d="m 35.657833,105.2834 v 3.96927 0 -0.0196"
       id="path29072-6-7"
       inkscape:export-filename="D:\Sourcecode\Article714\ansible714\documentation\using\img\inventory_conventions.png"
       inkscape:export-xdpi="185.95"
       inkscape:export-ydpi="185.95" />
    <path
       style="mix-blend-mode:normal;fill:url(#linearGradient57149);fill-opacity:1;stroke:#cca400;stroke-width:0.7;stroke-linecap:butt;stroke-linejoin:miter;stroke-miterlimit:4;stroke-dasharray:2.1, 0.7;stroke-dashoffset:0;stroke-opacity:1;filter:url(#filter33207-4-0-9-8)"
       d="m 72.742868,170.5468 25.17526,0.17011 -0.17011,0.3402 v -0.51031"
       id="path29238-7-6-2-1"
       transform="matrix(0.39692746,0,0,0.39692746,7.3164077,41.289545)"
       inkscape:export-filename="D:\Sourcecode\Article714\ansible714\documentation\using\img\inventory_conventions.png"
       inkscape:export-xdpi="185.95"
       inkscape:export-ydpi="185.95" />
    <path
       style="display:inline;fill:none;fill-opacity:1;fill-rule:nonzero;stroke:#093887;stroke-width:0.369672;stroke-miterlimit:4;stroke-dasharray:none;stroke-dashoffset:0;stroke-opacity:1"
       d="m 29.134893,29.038334 c 0,0 0.177302,1.1804 0.177302,2.22513 -0.01467,0.0654 -0.02224,0.13324 -0.0226,0.20281 l -0.03837,7.44805 c 1.891401,-0.21734 6.495928,-0.40082 8.025476,-0.41648 3.208853,-0.0225 5.560894,0.37811 5.560894,0.37811 l -0.191877,-7.40968 c -0.01409,-0.54397 -0.471506,-0.98226 -1.057283,-0.98226 l -8.332811,0.0274 c -0.287792,0.0218 -0.274238,-0.25624 -0.324096,-0.34493 l -0.04269,-0.18165 c -0.124962,-0.53164 -0.473172,-0.93939 -1.057392,-0.98216 0,0 -1.427806,0.21354 -2.696549,0.0357 z"
       id="rect64220-5-3-8"
       inkscape:connector-curvature="0"
       sodipodi:nodetypes="ccscccscccssc"
       inkscape:export-filename="D:\Sourcecode\Article714\ansible714\documentation\using\img\inventory_conventions.png"
       inkscape:export-xdpi="185.95"
       inkscape:export-ydpi="185.95" />
    <text
       xml:space="preserve"
       style="font-style:normal;font-weight:normal;font-size:0.527771px;line-height:0%;font-family:sans-serif;text-align:start;letter-spacing:0px;word-spacing:0px;text-anchor:start;display:inline;fill:#cca400;fill-opacity:1;stroke:none;stroke-width:0.0439808px;stroke-linecap:butt;stroke-linejoin:miter;stroke-opacity:1"
       x="30.886909"
       y="36.571686"
       id="text19650-9-3-8-4-1"
       transform="rotate(-2.6746733)"
       inkscape:export-filename="D:\Sourcecode\Article714\ansible714\documentation\using\img\inventory_conventions.png"
       inkscape:export-xdpi="185.95"
       inkscape:export-ydpi="185.95"><tspan
         sodipodi:role="line"
         id="tspan19652-3-6-7-0-6"
         x="30.886909"
         y="36.571686"
         style="font-style:normal;font-variant:normal;font-weight:normal;font-stretch:normal;font-size:3.0806px;line-height:1.25;font-family:'Asana Math';-inkscape-font-specification:'Asana Math, Normal';font-variant-ligatures:normal;font-variant-caps:normal;font-variant-numeric:normal;font-variant-east-asian:normal;fill:#cca400;fill-opacity:1;stroke-width:0.0439808px">keys</tspan></text>
    <path
       style="mix-blend-mode:normal;fill:url(#linearGradient33476-6);fill-opacity:1;stroke:#093887;stroke-width:1;stroke-linecap:butt;stroke-linejoin:miter;stroke-miterlimit:4;stroke-dasharray:none;stroke-opacity:1;filter:url(#filter33207-4-5)"
       d="m 28.813418,149.55039 25.175257,0.17011 -0.170103,0.3402 v -0.51031"
       id="path29238-7-9"
       transform="matrix(0.3901733,0,0,0.39692746,8.0133707,-25.312548)"
       inkscape:export-filename="D:\Sourcecode\Article714\ansible714\documentation\using\img\inventory_conventions.png"
       inkscape:export-xdpi="185.95"
       inkscape:export-ydpi="185.95" />
    <text
       xml:space="preserve"
       style="font-style:italic;font-variant:normal;font-weight:normal;font-stretch:normal;font-size:2.52049px;line-height:0%;font-family:sans-serif;-inkscape-font-specification:'sans-serif, Italic';font-variant-ligatures:normal;font-variant-caps:normal;font-variant-numeric:normal;font-variant-east-asian:normal;text-align:start;letter-spacing:0px;word-spacing:0px;text-anchor:start;display:inline;fill:#093887;fill-opacity:1;stroke:none;stroke-width:0.0439808px;stroke-linecap:butt;stroke-linejoin:miter;stroke-opacity:1"
       x="49.0229"
       y="45.528641"
       id="text19650-9-3-8-2-9-8"
       transform="rotate(-2.6746733)"
       inkscape:export-filename="D:\Sourcecode\Article714\ansible714\documentation\using\img\inventory_conventions.png"
       inkscape:export-xdpi="185.95"
       inkscape:export-ydpi="185.95"><tspan
         sodipodi:role="line"
         id="tspan19652-3-6-7-8-3-3"
         x="49.0229"
         y="45.528641"
         style="font-style:italic;font-variant:normal;font-weight:normal;font-stretch:normal;font-size:2.52049px;line-height:1.25;font-family:sans-serif;-inkscape-font-specification:'sans-serif, Italic';font-variant-ligatures:normal;font-variant-caps:normal;font-variant-numeric:normal;font-variant-east-asian:normal;fill:#093887;fill-opacity:1;stroke-width:0.0439808px">letsencrypt_key.pem</tspan></text>
    <path
       style="display:inline;fill:none;fill-opacity:1;fill-rule:evenodd;stroke:#cca400;stroke-width:0.202359;stroke-linecap:butt;stroke-linejoin:miter;stroke-miterlimit:4;stroke-dasharray:none;stroke-dashoffset:0;stroke-opacity:1"
       d="m 49.834625,39.809904 0.0055,0.006 c -0.937607,-0.0192 -1.874129,0.1407 -2.809801,0.008 0.165252,1.53834 0.08549,3.01829 0.09757,4.52743 0.566074,-0.0182 1.196764,-0.0876 1.752216,-0.0838 0.623771,0.004 1.168431,0.0855 1.727833,0.13757 0.011,-1.22615 -0.01524,-2.55701 0.01159,-3.82725 0.0024,-0.11455 -3.97e-4,-0.11836 -3.97e-4,-0.11836 -0.116018,-0.54044 -0.349085,-0.59248 -0.672105,-0.63786 l -0.05232,-0.006 -0.05405,3.9e-4 c -0.002,-0.002 -0.004,-0.004 -0.006,-0.006 z m 0.737106,0.60489 c -0.183233,0.0219 -0.308904,0.0185 -0.588361,-0.004 -0.0424,-0.16304 -0.06334,-0.18174 -0.08228,-0.52841"
       id="path62705-8-7-0-6-4-1-3"
       inkscape:connector-curvature="0"
       sodipodi:nodetypes="ccccscscccccccc"
       inkscape:export-filename="D:\Sourcecode\Article714\ansible714\documentation\using\img\inventory_conventions.png"
       inkscape:export-xdpi="185.95"
       inkscape:export-ydpi="185.95" />
    <path
       style="fill:none;stroke:#cca400;stroke-width:0.277849;stroke-linecap:butt;stroke-linejoin:miter;stroke-miterlimit:4;stroke-dasharray:0.555698, 0.277849;stroke-dashoffset:0;stroke-opacity:1"
       d="m 35.990148,38.152137 v 3.96927 0 -0.0196"
       id="path29072-6-7-0"
       inkscape:export-filename="D:\Sourcecode\Article714\ansible714\documentation\using\img\inventory_conventions.png"
       inkscape:export-xdpi="185.95"
       inkscape:export-ydpi="185.95" />
    <path
       style="mix-blend-mode:normal;fill:url(#linearGradient43067);fill-opacity:1;stroke:#cca400;stroke-width:0.7;stroke-linecap:butt;stroke-linejoin:miter;stroke-miterlimit:4;stroke-dasharray:2.1, 0.7;stroke-dashoffset:0;stroke-opacity:1;filter:url(#filter33207-4-0-9-8-8)"
       d="m 72.742868,170.5468 25.17526,0.17011 -0.17011,0.3402 v -0.51031"
       id="path29238-7-6-2-1-1"
       transform="matrix(0.39692746,0,0,0.39692746,7.6487227,-25.617708)"
       inkscape:export-filename="D:\Sourcecode\Article714\ansible714\documentation\using\img\inventory_conventions.png"
       inkscape:export-xdpi="185.95"
       inkscape:export-ydpi="185.95" />
    <path
       style="display:inline;fill:none;fill-opacity:1;fill-rule:nonzero;stroke:#093887;stroke-width:0.369672;stroke-miterlimit:4;stroke-dasharray:none;stroke-dashoffset:0;stroke-opacity:1"
       d="m 29.046204,15.840839 c 0,0 0.177302,1.180394 0.177302,2.225131 -0.01467,0.06541 -0.02224,0.133237 -0.0226,0.202806 l -0.03837,7.448054 c 1.891401,-0.21734 6.495928,-0.40082 8.025476,-0.41648 3.208853,-0.0225 5.560894,0.37811 5.560894,0.37811 L 42.557029,18.268776 C 42.542939,17.724803 42.085523,17.28652 41.499746,17.28652 l -8.332811,0.02743 c -0.287792,0.02183 -0.274238,-0.256241 -0.324096,-0.344934 l -0.04269,-0.181654 c -0.124962,-0.531633 -0.473172,-0.939385 -1.057392,-0.982158 0,0 -1.427806,0.213543 -2.696549,0.03565 z"
       id="rect64220-5-3-80"
       inkscape:connector-curvature="0"
       sodipodi:nodetypes="ccscccscccssc"
       inkscape:export-filename="D:\Sourcecode\Article714\ansible714\documentation\using\img\inventory_conventions.png"
       inkscape:export-xdpi="185.95"
       inkscape:export-ydpi="185.95" />
    <text
       xml:space="preserve"
       style="font-style:normal;font-weight:normal;font-size:0.527771px;line-height:0%;font-family:sans-serif;text-align:start;letter-spacing:0px;word-spacing:0px;text-anchor:start;display:inline;fill:#cca400;fill-opacity:1;stroke:none;stroke-width:0.0439808px;stroke-linecap:butt;stroke-linejoin:miter;stroke-opacity:1"
       x="31.414169"
       y="23.38442"
       id="text19650-9-3-8-4-6"
       transform="rotate(-2.6746733)"
       inkscape:export-filename="D:\Sourcecode\Article714\ansible714\documentation\using\img\inventory_conventions.png"
       inkscape:export-xdpi="185.95"
       inkscape:export-ydpi="185.95"><tspan
         sodipodi:role="line"
         id="tspan19652-3-6-7-0-1"
         x="31.414169"
         y="23.38442"
         style="font-style:normal;font-variant:normal;font-weight:normal;font-stretch:normal;font-size:3.0806px;line-height:1.25;font-family:'Asana Math';-inkscape-font-specification:'Asana Math, Normal';font-variant-ligatures:normal;font-variant-caps:normal;font-variant-numeric:normal;font-variant-east-asian:normal;fill:#cca400;fill-opacity:1;stroke-width:0.0439808px">certs</tspan></text>
    <path
       style="mix-blend-mode:normal;fill:url(#linearGradient33476-3);fill-opacity:1;stroke:#093887;stroke-width:1;stroke-linecap:butt;stroke-linejoin:miter;stroke-miterlimit:4;stroke-dasharray:none;stroke-opacity:1;filter:url(#filter33207-4-4)"
       d="m 28.813418,149.55039 25.175257,0.17011 -0.170103,0.3402 v -0.51031"
       id="path29238-7-3"
       transform="matrix(0.3901733,0,0,0.39692746,7.9246805,-38.510045)"
       inkscape:export-filename="D:\Sourcecode\Article714\ansible714\documentation\using\img\inventory_conventions.png"
       inkscape:export-xdpi="185.95"
       inkscape:export-ydpi="185.95" />
    <text
       xml:space="preserve"
       style="font-style:italic;font-variant:normal;font-weight:normal;font-stretch:normal;font-size:2.52049px;line-height:0%;font-family:sans-serif;-inkscape-font-specification:'sans-serif, Italic';font-variant-ligatures:normal;font-variant-caps:normal;font-variant-numeric:normal;font-variant-east-asian:normal;text-align:start;letter-spacing:0px;word-spacing:0px;text-anchor:start;display:inline;fill:#093887;fill-opacity:1;stroke:none;stroke-width:0.0439808px;stroke-linecap:butt;stroke-linejoin:miter;stroke-opacity:1"
       x="49.550167"
       y="32.341377"
       id="text19650-9-3-8-2-9-0"
       transform="rotate(-2.6746733)"
       inkscape:export-filename="D:\Sourcecode\Article714\ansible714\documentation\using\img\inventory_conventions.png"
       inkscape:export-xdpi="185.95"
       inkscape:export-ydpi="185.95"><tspan
         sodipodi:role="line"
         id="tspan19652-3-6-7-8-3-1"
         x="49.550167"
         y="32.341377"
         style="font-style:italic;font-variant:normal;font-weight:normal;font-stretch:normal;font-size:2.52049px;line-height:1.25;font-family:sans-serif;-inkscape-font-specification:'sans-serif, Italic';font-variant-ligatures:normal;font-variant-caps:normal;font-variant-numeric:normal;font-variant-east-asian:normal;fill:#093887;fill-opacity:1;stroke-width:0.0439808px">ansible_ssh-cert.pub</tspan></text>
    <path
       style="display:inline;fill:none;fill-opacity:1;fill-rule:evenodd;stroke:#cca400;stroke-width:0.202359;stroke-linecap:butt;stroke-linejoin:miter;stroke-miterlimit:4;stroke-dasharray:none;stroke-dashoffset:0;stroke-opacity:1"
       d="m 49.745936,26.61241 0.0055,0.006 c -0.937607,-0.0192 -1.874129,0.1407 -2.809801,0.008 0.165252,1.53834 0.08549,3.01829 0.09757,4.52743 0.566074,-0.0182 1.196764,-0.0876 1.752216,-0.0838 0.623771,0.004 1.168431,0.0855 1.727833,0.13757 0.011,-1.22615 -0.01524,-2.55701 0.01159,-3.82725 0.0024,-0.11455 -3.97e-4,-0.11836 -3.97e-4,-0.11836 -0.116018,-0.54044 -0.349085,-0.59248 -0.672105,-0.63786 l -0.05232,-0.006 -0.05405,3.9e-4 c -0.002,-0.002 -0.004,-0.004 -0.006,-0.006 z m 0.737106,0.60489 c -0.183233,0.0219 -0.308904,0.0185 -0.588361,-0.004 -0.0424,-0.16304 -0.06334,-0.18174 -0.08228,-0.52841"
       id="path62705-8-7-0-6-4-1-7"
       inkscape:connector-curvature="0"
       sodipodi:nodetypes="ccccscscccccccc"
       inkscape:export-filename="D:\Sourcecode\Article714\ansible714\documentation\using\img\inventory_conventions.png"
       inkscape:export-xdpi="185.95"
       inkscape:export-ydpi="185.95" />
    <path
       style="fill:none;stroke:#cca400;stroke-width:0.277849;stroke-linecap:butt;stroke-linejoin:miter;stroke-miterlimit:4;stroke-dasharray:0.555698, 0.277849;stroke-dashoffset:0;stroke-opacity:1"
       d="m 35.901459,25.48381 v 3.96927 0 -0.0196"
       id="path29072-6-7-2"
       inkscape:export-filename="D:\Sourcecode\Article714\ansible714\documentation\using\img\inventory_conventions.png"
       inkscape:export-xdpi="185.95"
       inkscape:export-ydpi="185.95" />
    <path
       style="mix-blend-mode:normal;fill:url(#linearGradient43143);fill-opacity:1;stroke:#cca400;stroke-width:0.7;stroke-linecap:butt;stroke-linejoin:miter;stroke-miterlimit:4;stroke-dasharray:2.1, 0.7;stroke-dashoffset:0;stroke-opacity:1;filter:url(#filter33207-4-0-9-8-7)"
       d="m 72.742868,170.5468 25.17526,0.17011 -0.17011,0.3402 v -0.51031"
       id="path29238-7-6-2-1-2"
       transform="matrix(0.39692746,0,0,0.39692746,7.5600325,-38.510045)"
       inkscape:export-filename="D:\Sourcecode\Article714\ansible714\documentation\using\img\inventory_conventions.png"
       inkscape:export-xdpi="185.95"
       inkscape:export-ydpi="185.95" />
    <path
       style="fill:none;stroke:#cca400;stroke-width:0.26823;stroke-linecap:butt;stroke-linejoin:miter;stroke-miterlimit:4;stroke-dasharray:0.536459, 0.26823;stroke-dashoffset:0;stroke-opacity:1"
       d="m 36.170774,121.06992 v 9.248 0 -0.0458"
       id="path29072-6-7-4"
       inkscape:export-filename="D:\Sourcecode\Article714\ansible714\documentation\using\img\inventory_conventions.png"
       inkscape:export-xdpi="185.95"
       inkscape:export-ydpi="185.95" />
    <path
       style="mix-blend-mode:normal;fill:url(#linearGradient57201);fill-opacity:1;stroke:#cca400;stroke-width:0.7;stroke-linecap:butt;stroke-linejoin:miter;stroke-miterlimit:4;stroke-dasharray:2.1, 0.7;stroke-dashoffset:0;stroke-opacity:1;filter:url(#filter33207-4-0-9-8-6)"
       d="m 72.742867,210.31859 25.175261,0.17011 -0.17011,0.3402 v -0.51031"
       id="path29238-7-6-2-1-6"
       transform="matrix(0.39692746,0,0,0.39692746,7.3164077,41.289545)"
       inkscape:export-filename="D:\Sourcecode\Article714\ansible714\documentation\using\img\inventory_conventions.png"
       inkscape:export-xdpi="185.95"
       inkscape:export-ydpi="185.95" />
    <text
       xml:space="preserve"
       style="font-style:italic;font-variant:normal;font-weight:normal;font-stretch:normal;font-size:2.52049px;line-height:0%;font-family:sans-serif;-inkscape-font-specification:'sans-serif, Italic';font-variant-ligatures:normal;font-variant-caps:normal;font-variant-numeric:normal;font-variant-east-asian:normal;text-align:start;letter-spacing:0px;word-spacing:0px;text-anchor:start;display:inline;fill:#093887;fill-opacity:1;stroke:none;stroke-width:0.0439808px;stroke-linecap:butt;stroke-linejoin:miter;stroke-opacity:1"
       x="44.566982"
       y="133.40607"
       id="text19650-9-3-8-2-7-6-9"
       transform="rotate(-2.6746733)"
       inkscape:export-filename="D:\Sourcecode\Article714\ansible714\documentation\using\img\inventory_conventions.png"
       inkscape:export-xdpi="185.95"
       inkscape:export-ydpi="185.95"><tspan
         sodipodi:role="line"
         id="tspan19652-3-6-7-8-1-7-4"
         x="44.566982"
         y="133.40607"
         style="font-style:italic;font-variant:normal;font-weight:normal;font-stretch:normal;font-size:2.52049px;line-height:1.25;font-family:sans-serif;-inkscape-font-specification:'sans-serif, Italic';font-variant-ligatures:normal;font-variant-caps:normal;font-variant-numeric:normal;font-variant-east-asian:normal;fill:#093887;fill-opacity:1;stroke-width:0.0439808px">second_svc.yml</tspan></text>
    <path
       style="display:inline;fill:none;fill-opacity:1;fill-rule:evenodd;stroke:#cca400;stroke-width:0.202359;stroke-linecap:butt;stroke-linejoin:miter;stroke-miterlimit:4;stroke-dasharray:none;stroke-dashoffset:0;stroke-opacity:1"
       d="m 49.507316,127.79954 0.0055,0.006 c -0.937606,-0.0192 -1.874129,0.14069 -2.809806,0.008 0.165253,1.53834 0.08549,3.01829 0.09757,4.52742 0.566078,-0.0182 1.196768,-0.0876 1.75222,-0.0838 0.623772,0.004 1.168431,0.0855 1.727833,0.13756 0.011,-1.22614 -0.01524,-2.557 0.01159,-3.82724 0.0024,-0.11455 -3.97e-4,-0.11837 -3.97e-4,-0.11837 -0.116018,-0.54044 -0.349086,-0.59247 -0.672106,-0.63785 l -0.05232,-0.006 -0.05405,4e-4 c -0.002,-0.002 -0.004,-0.004 -0.006,-0.006 z m 0.737106,0.6049 c -0.183234,0.022 -0.308905,0.0185 -0.588362,-0.004 -0.0424,-0.16304 -0.06334,-0.18173 -0.08228,-0.52841"
       id="path62705-8-7-0-6-4-3-9-7"
       inkscape:connector-curvature="0"
       sodipodi:nodetypes="ccccscscccccccc"
       inkscape:export-filename="D:\Sourcecode\Article714\ansible714\documentation\using\img\inventory_conventions.png"
       inkscape:export-xdpi="185.95"
       inkscape:export-ydpi="185.95" />
    <path
       style="mix-blend-mode:normal;fill:url(#linearGradient57258);fill-opacity:1;stroke:#cca400;stroke-width:0.7;stroke-linecap:butt;stroke-linejoin:miter;stroke-miterlimit:4;stroke-dasharray:2.1, 0.7;stroke-dashoffset:0;stroke-opacity:1;filter:url(#filter33207-4-0-9-8-6-8)"
       d="m 72.98869,223.84145 25.17526,0.17011 -0.17011,0.3402 v -0.51031"
       id="path29238-7-6-2-1-6-1"
       transform="matrix(0.39692746,0,0,0.39692746,7.3164077,41.289545)"
       inkscape:export-filename="D:\Sourcecode\Article714\ansible714\documentation\using\img\inventory_conventions.png"
       inkscape:export-xdpi="185.95"
       inkscape:export-ydpi="185.95" />
  </g>
</svg>
